EESchema Schematic File Version 4
EELAYER 30 0
EELAYER END
$Descr A4 11693 8268
encoding utf-8
Sheet 1 1
Title "JTAG MicroMaTch programming adapter"
Date "9 April 2020"
Rev "Rev.3"
Comp "Remy Horton"
Comment1 ""
Comment2 ""
Comment3 ""
Comment4 ""
$EndDescr
$Comp
L Connector_Generic:Conn_02x10_Odd_Even J1
U 1 1 5DCD9204
P 5350 3850
F 0 "J1" H 5400 4375 50  0000 C CNN
F 1 "Conn_02x10_Odd_Even" H 5400 4376 50  0001 C CNN
F 2 "Connector_PinSocket_2.54mm:PinSocket_2x10_P2.54mm_Vertical" H 5350 3850 50  0001 C CNN
F 3 "~" H 5350 3850 50  0001 C CNN
	1    5350 3850
	1    0    0    -1  
$EndComp
Text Label 5150 3550 2    50   ~ 0
TRST
Text Label 5150 3650 2    50   ~ 0
TDI
Text Label 5150 3750 2    50   ~ 0
SWDIO
Text Label 5150 3850 2    50   ~ 0
SWCLK
Text Label 5150 4050 2    50   ~ 0
TDO
Text Label 5150 4150 2    50   ~ 0
Reset
$Comp
L power:VCC #PWR01
U 1 1 5DCDBED5
P 5150 3450
F 0 "#PWR01" H 5150 3300 50  0001 C CNN
F 1 "VCC" H 5167 3623 50  0000 C CNN
F 2 "" H 5150 3450 50  0001 C CNN
F 3 "" H 5150 3450 50  0001 C CNN
	1    5150 3450
	1    0    0    -1  
$EndComp
$Comp
L power:VCC #PWR02
U 1 1 5DCDC18F
P 5650 3450
F 0 "#PWR02" H 5650 3300 50  0001 C CNN
F 1 "VCC" H 5667 3623 50  0000 C CNN
F 2 "" H 5650 3450 50  0001 C CNN
F 3 "" H 5650 3450 50  0001 C CNN
	1    5650 3450
	1    0    0    -1  
$EndComp
Text Label 7600 3450 0    50   ~ 0
SWDIO
Text Label 7600 3550 0    50   ~ 0
SWCLK
$Comp
L power:GND #PWR07
U 1 1 5DCDEAC1
P 7100 3650
F 0 "#PWR07" H 7100 3400 50  0001 C CNN
F 1 "GND" H 7105 3477 50  0000 C CNN
F 2 "" H 7100 3650 50  0001 C CNN
F 3 "" H 7100 3650 50  0001 C CNN
	1    7100 3650
	1    0    0    -1  
$EndComp
$Comp
L power:VCC #PWR06
U 1 1 5DCDEACB
P 7100 3450
F 0 "#PWR06" H 7100 3300 50  0001 C CNN
F 1 "VCC" H 7117 3623 50  0000 C CNN
F 2 "" H 7100 3450 50  0001 C CNN
F 3 "" H 7100 3450 50  0001 C CNN
	1    7100 3450
	1    0    0    -1  
$EndComp
Text Label 7600 3650 0    50   ~ 0
Reset
$Comp
L Connector_Generic:Conn_02x03_Odd_Even J3
U 1 1 5DCE0878
P 7300 3550
F 0 "J3" H 7350 3775 50  0000 C CNN
F 1 "Conn_02x03_Odd_Even" H 7350 3776 50  0001 C CNN
F 2 "MicroMaTch:MicroMaTch-SMD-6" H 7300 3550 50  0001 C CNN
F 3 "~" H 7300 3550 50  0001 C CNN
	1    7300 3550
	1    0    0    -1  
$EndComp
NoConn ~ 7100 3550
Wire Wire Line
	5650 3550 5650 3650
Wire Wire Line
	5650 3650 5650 3750
Connection ~ 5650 3650
Wire Wire Line
	5650 3750 5650 3850
Connection ~ 5650 3750
Wire Wire Line
	5650 3850 5650 3950
Connection ~ 5650 3850
Wire Wire Line
	5650 3950 5650 4050
Connection ~ 5650 3950
Wire Wire Line
	5650 4050 5650 4150
Connection ~ 5650 4050
Wire Wire Line
	5650 4150 5650 4250
Connection ~ 5650 4150
Wire Wire Line
	5650 4250 5650 4350
Connection ~ 5650 4250
$Comp
L power:GND #PWR03
U 1 1 5DCE8C86
P 5650 4350
F 0 "#PWR03" H 5650 4100 50  0001 C CNN
F 1 "GND" H 5655 4177 50  0000 C CNN
F 2 "" H 5650 4350 50  0001 C CNN
F 3 "" H 5650 4350 50  0001 C CNN
	1    5650 4350
	1    0    0    -1  
$EndComp
Connection ~ 5650 4350
NoConn ~ 5150 4250
NoConn ~ 5150 4350
$Comp
L power:PWR_FLAG #FLG0101
U 1 1 5DCE9491
P 6900 4500
F 0 "#FLG0101" H 6900 4575 50  0001 C CNN
F 1 "PWR_FLAG" H 6900 4673 50  0000 C CNN
F 2 "" H 6900 4500 50  0001 C CNN
F 3 "~" H 6900 4500 50  0001 C CNN
	1    6900 4500
	1    0    0    -1  
$EndComp
$Comp
L power:PWR_FLAG #FLG0102
U 1 1 5DCE9856
P 6550 3300
F 0 "#FLG0102" H 6550 3375 50  0001 C CNN
F 1 "PWR_FLAG" H 6550 3473 50  0000 C CNN
F 2 "" H 6550 3300 50  0001 C CNN
F 3 "~" H 6550 3300 50  0001 C CNN
	1    6550 3300
	1    0    0    -1  
$EndComp
$Comp
L Connector_Generic:Conn_01x02 J4
U 1 1 5DCDBBE4
P 7400 4150
F 0 "J4" H 7480 4096 50  0000 L CNN
F 1 "Conn_01x02" H 7480 4051 50  0001 L CNN
F 2 "Resistor_SMD:R_0805_2012Metric_Pad1.15x1.40mm_HandSolder" H 7400 4150 50  0001 C CNN
F 3 "~" H 7400 4150 50  0001 C CNN
	1    7400 4150
	1    0    0    -1  
$EndComp
Text Label 7200 4250 2    50   ~ 0
RCLK
Text Label 7200 4150 2    50   ~ 0
SWCLK
NoConn ~ 5150 3550
$Comp
L Connector:Conn_ARM_JTAG_SWD_10 J2
U 1 1 5E499B75
P 6250 3900
F 0 "J2" H 5950 4450 50  0000 R CNN
F 1 "Conn_ARM_JTAG_SWD_10" V 5800 4350 50  0000 R CNN
F 2 "MicroMaTch:MicroMaTch-SMD-10" H 6250 3900 50  0001 C CNN
F 3 "http://infocenter.arm.com/help/topic/com.arm.doc.ddi0314h/DDI0314H_coresight_components_trm.pdf" V 5900 2650 50  0001 C CNN
	1    6250 3900
	1    0    0    -1  
$EndComp
$Comp
L power:GND #PWR04
U 1 1 5E4A1908
P 6200 4500
F 0 "#PWR04" H 6200 4250 50  0001 C CNN
F 1 "GND" H 6205 4327 50  0000 C CNN
F 2 "" H 6200 4500 50  0001 C CNN
F 3 "" H 6200 4500 50  0001 C CNN
	1    6200 4500
	1    0    0    -1  
$EndComp
Wire Wire Line
	6250 4500 6200 4500
Wire Wire Line
	6150 4500 6200 4500
Connection ~ 6200 4500
$Comp
L power:VCC #PWR05
U 1 1 5E4A2427
P 6250 3300
F 0 "#PWR05" H 6250 3150 50  0001 C CNN
F 1 "VCC" H 6267 3473 50  0000 C CNN
F 2 "" H 6250 3300 50  0001 C CNN
F 3 "" H 6250 3300 50  0001 C CNN
	1    6250 3300
	1    0    0    -1  
$EndComp
Text Label 6750 3600 0    50   ~ 0
Reset
Text Label 6750 3900 0    50   ~ 0
SWDIO
Text Label 6750 3800 0    50   ~ 0
SWCLK
Text Label 6750 4000 0    50   ~ 0
TDO
Text Label 6750 4100 0    50   ~ 0
TDI
Wire Wire Line
	6900 4500 6250 4500
Connection ~ 6250 4500
Wire Wire Line
	6550 3300 6250 3300
Connection ~ 6250 3300
Text Label 5150 3950 2    50   ~ 0
RCLK
$EndSCHEMATC
