EESchema Schematic File Version 4
EELAYER 30 0
EELAYER END
$Descr A4 11693 8268
encoding utf-8
Sheet 1 1
Title "SMD 555 astable"
Date "18 May 2023"
Rev "Rev.1"
Comp "Remy Horton"
Comment1 ""
Comment2 ""
Comment3 ""
Comment4 ""
$EndDescr
$Comp
L Timer:NE555P U1
U 1 1 64663F5E
P 5550 3450
F 0 "U1" H 5850 3800 50  0000 C CNN
F 1 "NE555P" H 5800 3100 50  0000 C CNN
F 2 "Package_DIP:DIP-8_W7.62mm" H 6200 3050 50  0001 C CNN
F 3 "http://www.ti.com/lit/ds/symlink/ne555.pdf" H 6400 3050 50  0001 C CNN
	1    5550 3450
	1    0    0    -1  
$EndComp
$Comp
L Device:R R1
U 1 1 646644F1
P 6300 3300
F 0 "R1" H 6370 3346 50  0000 L CNN
F 1 "R" H 6370 3255 50  0000 L CNN
F 2 "Resistor_SMD:R_0805_2012Metric_Pad1.20x1.40mm_HandSolder" V 6230 3300 50  0001 C CNN
F 3 "~" H 6300 3300 50  0001 C CNN
	1    6300 3300
	1    0    0    -1  
$EndComp
$Comp
L Device:R R2
U 1 1 64664755
P 6300 3600
F 0 "R2" H 6370 3646 50  0000 L CNN
F 1 "R" H 6370 3555 50  0000 L CNN
F 2 "Resistor_SMD:R_0805_2012Metric_Pad1.20x1.40mm_HandSolder" V 6230 3600 50  0001 C CNN
F 3 "~" H 6300 3600 50  0001 C CNN
	1    6300 3600
	1    0    0    -1  
$EndComp
$Comp
L Device:D D1
U 1 1 64664B10
P 6150 3600
F 0 "D1" V 6250 3600 50  0000 R CNN
F 1 "D" V 6050 3600 50  0000 R CNN
F 2 "Diode_THT:D_A-405_P7.62mm_Horizontal" H 6150 3600 50  0001 C CNN
F 3 "~" H 6150 3600 50  0001 C CNN
	1    6150 3600
	0    -1   -1   0   
$EndComp
Wire Wire Line
	6050 3450 6150 3450
Wire Wire Line
	6150 3450 6300 3450
Connection ~ 6150 3450
Wire Wire Line
	6150 3750 6050 3750
Wire Wire Line
	6050 3750 6050 3650
Connection ~ 6150 3750
Connection ~ 6300 3450
$Comp
L Device:C C1
U 1 1 64666E44
P 6150 3850
F 0 "C1" V 6100 3750 50  0000 C CNN
F 1 "C" V 6100 3950 50  0000 C CNN
F 2 "Capacitor_SMD:C_0805_2012Metric_Pad1.18x1.45mm_HandSolder" H 6188 3700 50  0001 C CNN
F 3 "~" H 6150 3850 50  0001 C CNN
	1    6150 3850
	0    -1   -1   0   
$EndComp
Wire Wire Line
	6300 3750 6300 3850
Connection ~ 6300 3750
Wire Wire Line
	5550 3850 6000 3850
$Comp
L power:GND #PWR04
U 1 1 64668798
P 5550 3850
F 0 "#PWR04" H 5550 3600 50  0001 C CNN
F 1 "GND" H 5555 3677 50  0001 C CNN
F 2 "" H 5550 3850 50  0001 C CNN
F 3 "" H 5550 3850 50  0001 C CNN
	1    5550 3850
	1    0    0    -1  
$EndComp
Text GLabel 6050 3250 2    50   Input ~ 0
Out
Wire Wire Line
	5550 3050 6300 3050
Wire Wire Line
	6300 3050 6300 3150
Wire Wire Line
	5050 3250 5050 3000
Wire Wire Line
	5050 3000 6500 3000
Wire Wire Line
	6500 3000 6500 3750
Wire Wire Line
	6500 3750 6300 3750
Wire Wire Line
	6150 3750 6300 3750
Connection ~ 5550 3850
Wire Wire Line
	5000 3050 5000 3650
Wire Wire Line
	5000 3650 5050 3650
Wire Wire Line
	5000 3050 5550 3050
Connection ~ 5550 3050
NoConn ~ 5050 3450
$Comp
L power:+5V #PWR03
U 1 1 64669B84
P 5000 3050
F 0 "#PWR03" H 5000 2900 50  0001 C CNN
F 1 "+5V" H 4800 3100 50  0001 C CNN
F 2 "" H 5000 3050 50  0001 C CNN
F 3 "" H 5000 3050 50  0001 C CNN
	1    5000 3050
	1    0    0    -1  
$EndComp
Connection ~ 5000 3050
$Comp
L Connector_Generic:Conn_01x03 J1
U 1 1 6466A5B2
P 4700 3150
F 0 "J1" H 4780 3146 50  0000 L CNN
F 1 "Conn_01x03" H 4780 3101 50  0001 L CNN
F 2 "Connector_PinHeader_2.54mm:PinHeader_1x03_P2.54mm_Vertical" H 4700 3150 50  0001 C CNN
F 3 "~" H 4700 3150 50  0001 C CNN
	1    4700 3150
	1    0    0    -1  
$EndComp
$Comp
L power:+5V #PWR01
U 1 1 6466B8E8
P 4500 3050
F 0 "#PWR01" H 4500 2900 50  0001 C CNN
F 1 "+5V" H 4300 3100 50  0001 C CNN
F 2 "" H 4500 3050 50  0001 C CNN
F 3 "" H 4500 3050 50  0001 C CNN
	1    4500 3050
	1    0    0    -1  
$EndComp
$Comp
L power:GND #PWR02
U 1 1 6466BCF6
P 4500 3250
F 0 "#PWR02" H 4500 3000 50  0001 C CNN
F 1 "GND" H 4505 3077 50  0001 C CNN
F 2 "" H 4500 3250 50  0001 C CNN
F 3 "" H 4500 3250 50  0001 C CNN
	1    4500 3250
	1    0    0    -1  
$EndComp
Text GLabel 4500 3150 0    50   Input ~ 0
Out
$Comp
L power:PWR_FLAG #FLG0101
U 1 1 6466E0C8
P 4500 3250
F 0 "#FLG0101" H 4500 3325 50  0001 C CNN
F 1 "PWR_FLAG" V 4500 3377 50  0001 L CNN
F 2 "" H 4500 3250 50  0001 C CNN
F 3 "~" H 4500 3250 50  0001 C CNN
	1    4500 3250
	0    -1   -1   0   
$EndComp
Connection ~ 4500 3250
$Comp
L power:PWR_FLAG #FLG0102
U 1 1 6466EB5B
P 4500 3050
F 0 "#FLG0102" H 4500 3125 50  0001 C CNN
F 1 "PWR_FLAG" V 4500 3177 50  0001 L CNN
F 2 "" H 4500 3050 50  0001 C CNN
F 3 "~" H 4500 3050 50  0001 C CNN
	1    4500 3050
	0    -1   -1   0   
$EndComp
Connection ~ 4500 3050
$EndSCHEMATC
