EESchema Schematic File Version 4
EELAYER 30 0
EELAYER END
$Descr A4 11693 8268
encoding utf-8
Sheet 1 1
Title ""
Date ""
Rev ""
Comp ""
Comment1 ""
Comment2 ""
Comment3 ""
Comment4 ""
$EndDescr
$Comp
L MCU_Microchip_PIC12:PIC12F1822-IP U1
U 1 1 5F80969E
P 8800 1650
F 0 "U1" H 8450 2100 50  0000 C CNN
F 1 "PIC12F1822-IP" H 9100 2100 50  0000 C CNN
F 2 "Package_SO:SOIC-8_3.9x4.9mm_P1.27mm" H 9400 2300 50  0001 C CNN
F 3 "http://ww1.microchip.com/downloads/en/DeviceDoc/41413B.pdf" H 8800 1650 50  0001 C CNN
	1    8800 1650
	1    0    0    -1  
$EndComp
$Comp
L Connector_Generic:Conn_01x04 J1
U 1 1 5F809D53
P 7600 1650
F 0 "J1" H 7550 1850 50  0000 L CNN
F 1 "Conn_01x04" H 7680 1551 50  0001 L CNN
F 2 "Connector_PinSocket_2.54mm:PinSocket_1x04_P2.54mm_Vertical" H 7600 1650 50  0001 C CNN
F 3 "~" H 7600 1650 50  0001 C CNN
	1    7600 1650
	1    0    0    -1  
$EndComp
$Comp
L Interface_USB:FT230XS U2
U 1 1 5F80B0D5
P 8700 3250
F 0 "U2" H 8200 3850 50  0000 C CNN
F 1 "FT230XS" H 9100 3850 50  0000 C CNN
F 2 "Package_SO:SSOP-16_3.9x4.9mm_P0.635mm" H 9700 2650 50  0001 C CNN
F 3 "https://www.ftdichip.com/Support/Documents/DataSheets/ICs/DS_FT230X.pdf" H 8700 3250 50  0001 C CNN
	1    8700 3250
	1    0    0    -1  
$EndComp
$Comp
L Connector:USB_B_Micro J3
U 1 1 5F80C95C
P 7000 3500
F 0 "J3" H 6850 3850 50  0000 C CNN
F 1 "USB_B_Micro" V 6750 3450 50  0000 C CNN
F 2 "Connector_USB:USB_Mini-B_Wuerth_65100516121_Horizontal" H 7150 3450 50  0001 C CNN
F 3 "~" H 7150 3450 50  0001 C CNN
	1    7000 3500
	1    0    0    -1  
$EndComp
$Comp
L power:GND #PWR02
U 1 1 5F80E43C
P 8700 3950
F 0 "#PWR02" H 8700 3700 50  0001 C CNN
F 1 "GND" H 8705 3777 50  0000 C CNN
F 2 "" H 8700 3950 50  0001 C CNN
F 3 "" H 8700 3950 50  0001 C CNN
	1    8700 3950
	1    0    0    -1  
$EndComp
Wire Wire Line
	8800 2550 8800 2500
$Comp
L Device:C C1
U 1 1 5F80F7F2
P 8050 3650
F 0 "C1" H 7900 3750 50  0000 L CNN
F 1 "100nF" H 7800 3550 50  0000 L CNN
F 2 "Capacitor_SMD:C_0805_2012Metric_Pad1.15x1.40mm_HandSolder" H 8088 3500 50  0001 C CNN
F 3 "~" H 8050 3650 50  0001 C CNN
	1    8050 3650
	1    0    0    -1  
$EndComp
Wire Wire Line
	8800 3950 8700 3950
Wire Wire Line
	8700 3950 8600 3950
Connection ~ 8700 3950
Wire Wire Line
	8000 3450 7950 3450
Wire Wire Line
	7950 3450 7950 2850
Wire Wire Line
	7950 2500 8350 2500
Wire Wire Line
	8000 2850 7950 2850
Connection ~ 7950 2850
Wire Wire Line
	7950 2850 7950 2500
NoConn ~ 9400 3650
NoConn ~ 9400 3550
NoConn ~ 9400 3450
NoConn ~ 9400 3350
NoConn ~ 9400 3150
NoConn ~ 9400 3050
$Comp
L Device:C C2
U 1 1 5F81634D
P 7700 3800
F 0 "C2" H 7700 3900 50  0000 L CNN
F 1 "47pF" H 7750 3700 50  0000 L CNN
F 2 "Capacitor_SMD:C_0805_2012Metric_Pad1.15x1.40mm_HandSolder" H 7738 3650 50  0001 C CNN
F 3 "~" H 7700 3800 50  0001 C CNN
	1    7700 3800
	1    0    0    -1  
$EndComp
$Comp
L Device:R R1
U 1 1 5F81D007
P 7750 3150
F 0 "R1" V 7957 3150 50  0000 C CNN
F 1 "27R" V 7866 3150 50  0000 C CNN
F 2 "Resistor_SMD:R_0805_2012Metric_Pad1.15x1.40mm_HandSolder" V 7680 3150 50  0001 C CNN
F 3 "~" H 7750 3150 50  0001 C CNN
	1    7750 3150
	0    -1   -1   0   
$EndComp
$Comp
L Device:R R2
U 1 1 5F81DE35
P 7750 3250
F 0 "R2" V 7550 3250 50  0000 C CNN
F 1 "27R" V 7650 3250 50  0000 C CNN
F 2 "Resistor_SMD:R_0805_2012Metric_Pad1.15x1.40mm_HandSolder" V 7680 3250 50  0001 C CNN
F 3 "~" H 7750 3250 50  0001 C CNN
	1    7750 3250
	0    -1   -1   0   
$EndComp
Wire Wire Line
	8000 3250 7900 3250
Wire Wire Line
	7900 3150 8000 3150
Wire Wire Line
	7950 3450 7950 3500
Wire Wire Line
	7950 3500 8050 3500
Connection ~ 7950 3450
Wire Wire Line
	8600 3950 8050 3950
Wire Wire Line
	8050 3950 8050 3800
Connection ~ 8600 3950
$Comp
L Device:C C3
U 1 1 5F82303C
P 7500 3800
F 0 "C3" H 7350 3900 50  0000 L CNN
F 1 "47pF" H 7250 3700 50  0000 L CNN
F 2 "Capacitor_SMD:C_0805_2012Metric_Pad1.15x1.40mm_HandSolder" H 7538 3650 50  0001 C CNN
F 3 "~" H 7500 3800 50  0001 C CNN
	1    7500 3800
	1    0    0    -1  
$EndComp
Wire Wire Line
	8050 3950 7700 3950
Connection ~ 8050 3950
Wire Wire Line
	7500 3950 7700 3950
Connection ~ 7700 3950
Wire Wire Line
	7500 3650 7500 3600
Wire Wire Line
	7500 3150 7600 3150
Wire Wire Line
	7300 3500 7600 3500
Wire Wire Line
	7600 3500 7600 3250
Wire Wire Line
	7700 3500 7600 3500
Connection ~ 7600 3500
Wire Wire Line
	7700 3500 7700 3650
Wire Wire Line
	7300 3600 7500 3600
Connection ~ 7500 3600
Wire Wire Line
	7500 3600 7500 3150
NoConn ~ 7300 3700
NoConn ~ 6900 3900
Wire Wire Line
	7500 3950 7000 3950
Wire Wire Line
	7000 3950 7000 3900
Connection ~ 7500 3950
Wire Wire Line
	8600 2550 7700 2550
Wire Wire Line
	7300 2550 7300 3300
$Comp
L Device:C C4
U 1 1 5F829E6C
P 7700 2700
F 0 "C4" H 7750 2800 50  0000 L CNN
F 1 "100nF" H 7700 2600 50  0000 L CNN
F 2 "Capacitor_SMD:C_0805_2012Metric_Pad1.15x1.40mm_HandSolder" H 7738 2550 50  0001 C CNN
F 3 "~" H 7700 2700 50  0001 C CNN
	1    7700 2700
	1    0    0    -1  
$EndComp
Connection ~ 7700 2550
Wire Wire Line
	7700 2550 7500 2550
$Comp
L Device:C C5
U 1 1 5F82A9C7
P 7500 2700
F 0 "C5" H 7350 2800 50  0000 L CNN
F 1 "4.7uF" H 7300 2600 50  0000 L CNN
F 2 "Capacitor_SMD:C_0805_2012Metric_Pad1.15x1.40mm_HandSolder" H 7538 2550 50  0001 C CNN
F 3 "~" H 7500 2700 50  0001 C CNN
	1    7500 2700
	1    0    0    -1  
$EndComp
Connection ~ 7500 2550
Wire Wire Line
	7500 2550 7300 2550
$Comp
L power:GND #PWR01
U 1 1 5F82BDA0
P 7500 2850
F 0 "#PWR01" H 7500 2600 50  0001 C CNN
F 1 "GND" H 7505 2677 50  0000 C CNN
F 2 "" H 7500 2850 50  0001 C CNN
F 3 "" H 7500 2850 50  0001 C CNN
	1    7500 2850
	1    0    0    -1  
$EndComp
Wire Wire Line
	7700 2850 7500 2850
Connection ~ 7500 2850
$Comp
L power:+3.3V #PWR06
U 1 1 5F82E046
P 8350 2500
F 0 "#PWR06" H 8350 2350 50  0001 C CNN
F 1 "+3.3V" H 8365 2673 50  0000 C CNN
F 2 "" H 8350 2500 50  0001 C CNN
F 3 "" H 8350 2500 50  0001 C CNN
	1    8350 2500
	1    0    0    -1  
$EndComp
Connection ~ 8350 2500
Wire Wire Line
	8350 2500 8800 2500
$Comp
L power:VBUS #PWR05
U 1 1 5F82F761
P 7300 2500
F 0 "#PWR05" H 7300 2350 50  0001 C CNN
F 1 "VBUS" H 7315 2673 50  0000 C CNN
F 2 "" H 7300 2500 50  0001 C CNN
F 3 "" H 7300 2500 50  0001 C CNN
	1    7300 2500
	1    0    0    -1  
$EndComp
Wire Wire Line
	7300 2500 7300 2550
Connection ~ 7300 2550
$Comp
L power:GND #PWR07
U 1 1 5F830679
P 8750 2250
F 0 "#PWR07" H 8750 2000 50  0001 C CNN
F 1 "GND" H 8755 2077 50  0000 C CNN
F 2 "" H 8750 2250 50  0001 C CNN
F 3 "" H 8750 2250 50  0001 C CNN
	1    8750 2250
	1    0    0    -1  
$EndComp
Text Label 9400 1550 0    50   ~ 0
MCLR
Text Label 8200 1650 2    50   ~ 0
SCL
Text Label 8200 1750 2    50   ~ 0
SDA
$Comp
L Device:R R3
U 1 1 5F832A41
P 8000 1700
F 0 "R3" H 7850 1750 50  0000 L CNN
F 1 "R" H 7900 1650 50  0000 L CNN
F 2 "Resistor_SMD:R_0805_2012Metric_Pad1.15x1.40mm_HandSolder" V 7930 1700 50  0001 C CNN
F 3 "~" H 8000 1700 50  0001 C CNN
	1    8000 1700
	1    0    0    -1  
$EndComp
$Comp
L Device:LED D1
U 1 1 5F83305D
P 8000 2000
F 0 "D1" V 8039 1882 50  0000 R CNN
F 1 "LED" V 7948 1882 50  0000 R CNN
F 2 "LED_SMD:LED_0805_2012Metric_Pad1.15x1.40mm_HandSolder" H 8000 2000 50  0001 C CNN
F 3 "~" H 8000 2000 50  0001 C CNN
	1    8000 2000
	0    -1   -1   0   
$EndComp
Wire Wire Line
	8800 2250 8750 2250
Connection ~ 8750 2250
Wire Wire Line
	8750 2250 8000 2250
$Comp
L power:GND #PWR04
U 1 1 5F838E82
P 7400 1850
F 0 "#PWR04" H 7400 1600 50  0001 C CNN
F 1 "GND" H 7405 1677 50  0000 C CNN
F 2 "" H 7400 1850 50  0001 C CNN
F 3 "" H 7400 1850 50  0001 C CNN
	1    7400 1850
	1    0    0    -1  
$EndComp
$Comp
L power:VBUS #PWR03
U 1 1 5F839140
P 7400 1550
F 0 "#PWR03" H 7400 1400 50  0001 C CNN
F 1 "VBUS" H 7415 1723 50  0000 C CNN
F 2 "" H 7400 1550 50  0001 C CNN
F 3 "" H 7400 1550 50  0001 C CNN
	1    7400 1550
	1    0    0    -1  
$EndComp
Text Label 7400 1750 2    50   ~ 0
SDA
Text Label 7400 1650 2    50   ~ 0
SCL
Connection ~ 7950 2500
Wire Wire Line
	9500 1650 9400 1650
Wire Wire Line
	8200 1550 8000 1550
Wire Wire Line
	8000 2150 8000 2250
Wire Wire Line
	7850 2500 7850 1050
Wire Wire Line
	7850 1050 8800 1050
Wire Wire Line
	7850 2500 7950 2500
$Comp
L Device:R R5
U 1 1 5F84ABAE
P 6950 2850
F 0 "R5" H 6750 2900 50  0000 L CNN
F 1 "10k" H 6750 2800 50  0000 L CNN
F 2 "Resistor_SMD:R_1206_3216Metric_Pad1.42x1.75mm_HandSolder" V 6880 2850 50  0001 C CNN
F 3 "~" H 6950 2850 50  0001 C CNN
	1    6950 2850
	1    0    0    -1  
$EndComp
Text Label 6950 3000 3    50   ~ 0
SCL
Text Label 7200 3000 3    50   ~ 0
SDA
$Comp
L Device:R R4
U 1 1 5F851E1B
P 7200 2850
F 0 "R4" H 7000 2900 50  0000 L CNN
F 1 "10k" H 7000 2800 50  0000 L CNN
F 2 "Resistor_SMD:R_1206_3216Metric_Pad1.42x1.75mm_HandSolder" V 7130 2850 50  0001 C CNN
F 3 "~" H 7200 2850 50  0001 C CNN
	1    7200 2850
	1    0    0    -1  
$EndComp
$Comp
L Switch:SW_Push SW1
U 1 1 5F855492
P 9200 2450
F 0 "SW1" H 9200 2735 50  0000 C CNN
F 1 "SW_Push" H 9200 2644 50  0000 C CNN
F 2 "Button_Switch_THT:SW_PUSH_6mm" H 9200 2650 50  0001 C CNN
F 3 "~" H 9200 2650 50  0001 C CNN
	1    9200 2450
	1    0    0    -1  
$EndComp
Wire Wire Line
	9400 1550 9550 1550
Wire Wire Line
	9550 1550 9550 2450
Wire Wire Line
	9550 2450 9400 2450
Wire Wire Line
	8800 2250 9000 2250
Wire Wire Line
	9000 2250 9000 2450
Connection ~ 8800 2250
$Comp
L Device:Jumper JP1
U 1 1 5F8689C9
P 6950 2400
F 0 "JP1" V 6950 2450 50  0000 R CNN
F 1 "Jumper" V 6905 2312 50  0001 R CNN
F 2 "Connector_PinHeader_2.54mm:PinHeader_1x02_P2.54mm_Vertical" H 6950 2400 50  0001 C CNN
F 3 "~" H 6950 2400 50  0001 C CNN
	1    6950 2400
	0    -1   -1   0   
$EndComp
Wire Wire Line
	7200 2700 6950 2700
Connection ~ 6950 2700
Wire Wire Line
	6950 2100 7150 2100
Wire Wire Line
	7150 2100 7150 2550
Wire Wire Line
	7150 2550 7300 2550
Wire Wire Line
	9400 1750 9450 1750
Wire Wire Line
	9450 1750 9450 2850
Wire Wire Line
	9450 2850 9400 2850
Wire Wire Line
	9400 2950 9500 2950
Wire Wire Line
	9500 1650 9500 2950
$EndSCHEMATC
