(export (version D)
  (design
    (source /home/remy/Bitbucket/pcb/i2c-master/i2cmaster.sch)
    (date "Fri 09 Oct 2020 08:36:47 PM BST")
    (tool "Eeschema 5.1.6")
    (sheet (number 1) (name /) (tstamps /)
      (title_block
        (title)
        (company)
        (rev)
        (date)
        (source i2cmaster.sch)
        (comment (number 1) (value ""))
        (comment (number 2) (value ""))
        (comment (number 3) (value ""))
        (comment (number 4) (value "")))))
  (components
    (comp (ref U1)
      (value PIC12F1822-IP)
      (footprint Package_SO:SOIC-8_3.9x4.9mm_P1.27mm)
      (datasheet http://ww1.microchip.com/downloads/en/DeviceDoc/41413B.pdf)
      (libsource (lib MCU_Microchip_PIC12) (part PIC12F1822-IP) (description "2kW FLASH, 128B SRAM, 256 EEPROM, PDIP8"))
      (sheetpath (names /) (tstamps /))
      (tstamp 5F80969E))
    (comp (ref J1)
      (value Conn_01x04)
      (footprint Connector_PinSocket_2.54mm:PinSocket_1x04_P2.54mm_Vertical)
      (datasheet ~)
      (libsource (lib Connector_Generic) (part Conn_01x04) (description "Generic connector, single row, 01x04, script generated (kicad-library-utils/schlib/autogen/connector/)"))
      (sheetpath (names /) (tstamps /))
      (tstamp 5F809D53))
    (comp (ref U2)
      (value FT230XS)
      (footprint Package_SO:SSOP-16_3.9x4.9mm_P0.635mm)
      (datasheet https://www.ftdichip.com/Support/Documents/DataSheets/ICs/DS_FT230X.pdf)
      (libsource (lib Interface_USB) (part FT230XS) (description "Full Speed USB to Basic UART, SSOP-16"))
      (sheetpath (names /) (tstamps /))
      (tstamp 5F80B0D5))
    (comp (ref J3)
      (value USB_B_Micro)
      (footprint Connector_USB:USB_Mini-B_Wuerth_65100516121_Horizontal)
      (datasheet ~)
      (libsource (lib Connector) (part USB_B_Micro) (description "USB Micro Type B connector"))
      (sheetpath (names /) (tstamps /))
      (tstamp 5F80C95C))
    (comp (ref C1)
      (value 100nF)
      (footprint Capacitor_SMD:C_0805_2012Metric_Pad1.15x1.40mm_HandSolder)
      (datasheet ~)
      (libsource (lib Device) (part C) (description "Unpolarized capacitor"))
      (sheetpath (names /) (tstamps /))
      (tstamp 5F80F7F2))
    (comp (ref C2)
      (value 47pF)
      (footprint Capacitor_SMD:C_0805_2012Metric_Pad1.15x1.40mm_HandSolder)
      (datasheet ~)
      (libsource (lib Device) (part C) (description "Unpolarized capacitor"))
      (sheetpath (names /) (tstamps /))
      (tstamp 5F81634D))
    (comp (ref R1)
      (value 27R)
      (footprint Resistor_SMD:R_0805_2012Metric_Pad1.15x1.40mm_HandSolder)
      (datasheet ~)
      (libsource (lib Device) (part R) (description Resistor))
      (sheetpath (names /) (tstamps /))
      (tstamp 5F81D007))
    (comp (ref R2)
      (value 27R)
      (footprint Resistor_SMD:R_0805_2012Metric_Pad1.15x1.40mm_HandSolder)
      (datasheet ~)
      (libsource (lib Device) (part R) (description Resistor))
      (sheetpath (names /) (tstamps /))
      (tstamp 5F81DE35))
    (comp (ref C3)
      (value 47pF)
      (footprint Capacitor_SMD:C_0805_2012Metric_Pad1.15x1.40mm_HandSolder)
      (datasheet ~)
      (libsource (lib Device) (part C) (description "Unpolarized capacitor"))
      (sheetpath (names /) (tstamps /))
      (tstamp 5F82303C))
    (comp (ref C4)
      (value 100nF)
      (footprint Capacitor_SMD:C_0805_2012Metric_Pad1.15x1.40mm_HandSolder)
      (datasheet ~)
      (libsource (lib Device) (part C) (description "Unpolarized capacitor"))
      (sheetpath (names /) (tstamps /))
      (tstamp 5F829E6C))
    (comp (ref C5)
      (value 4.7uF)
      (footprint Capacitor_SMD:C_0805_2012Metric_Pad1.15x1.40mm_HandSolder)
      (datasheet ~)
      (libsource (lib Device) (part C) (description "Unpolarized capacitor"))
      (sheetpath (names /) (tstamps /))
      (tstamp 5F82A9C7))
    (comp (ref R3)
      (value R)
      (footprint Resistor_SMD:R_0805_2012Metric_Pad1.15x1.40mm_HandSolder)
      (datasheet ~)
      (libsource (lib Device) (part R) (description Resistor))
      (sheetpath (names /) (tstamps /))
      (tstamp 5F832A41))
    (comp (ref D1)
      (value LED)
      (footprint LED_SMD:LED_0805_2012Metric_Pad1.15x1.40mm_HandSolder)
      (datasheet ~)
      (libsource (lib Device) (part LED) (description "Light emitting diode"))
      (sheetpath (names /) (tstamps /))
      (tstamp 5F83305D))
    (comp (ref R5)
      (value 10k)
      (footprint Resistor_SMD:R_1206_3216Metric_Pad1.42x1.75mm_HandSolder)
      (datasheet ~)
      (libsource (lib Device) (part R) (description Resistor))
      (sheetpath (names /) (tstamps /))
      (tstamp 5F84ABAE))
    (comp (ref R4)
      (value 10k)
      (footprint Resistor_SMD:R_1206_3216Metric_Pad1.42x1.75mm_HandSolder)
      (datasheet ~)
      (libsource (lib Device) (part R) (description Resistor))
      (sheetpath (names /) (tstamps /))
      (tstamp 5F851E1B))
    (comp (ref SW1)
      (value SW_Push)
      (footprint Button_Switch_THT:SW_PUSH_6mm)
      (datasheet ~)
      (libsource (lib Switch) (part SW_Push) (description "Push button switch, generic, two pins"))
      (sheetpath (names /) (tstamps /))
      (tstamp 5F855492))
    (comp (ref JP1)
      (value Jumper)
      (footprint Connector_PinHeader_2.54mm:PinHeader_1x02_P2.54mm_Vertical)
      (datasheet ~)
      (libsource (lib Device) (part Jumper) (description "Jumper, normally closed"))
      (sheetpath (names /) (tstamps /))
      (tstamp 5F8689C9)))
  (libparts
    (libpart (lib Connector) (part USB_B_Micro)
      (aliases
        (alias USB_B_Mini))
      (description "USB Micro Type B connector")
      (docs ~)
      (footprints
        (fp USB*))
      (fields
        (field (name Reference) J)
        (field (name Value) USB_B_Micro))
      (pins
        (pin (num 1) (name VBUS) (type power_out))
        (pin (num 2) (name D-) (type passive))
        (pin (num 3) (name D+) (type passive))
        (pin (num 4) (name ID) (type passive))
        (pin (num 5) (name GND) (type power_out))
        (pin (num 6) (name Shield) (type passive))))
    (libpart (lib Connector_Generic) (part Conn_01x04)
      (description "Generic connector, single row, 01x04, script generated (kicad-library-utils/schlib/autogen/connector/)")
      (docs ~)
      (footprints
        (fp Connector*:*_1x??_*))
      (fields
        (field (name Reference) J)
        (field (name Value) Conn_01x04))
      (pins
        (pin (num 1) (name Pin_1) (type passive))
        (pin (num 2) (name Pin_2) (type passive))
        (pin (num 3) (name Pin_3) (type passive))
        (pin (num 4) (name Pin_4) (type passive))))
    (libpart (lib Device) (part C)
      (description "Unpolarized capacitor")
      (docs ~)
      (footprints
        (fp C_*))
      (fields
        (field (name Reference) C)
        (field (name Value) C))
      (pins
        (pin (num 1) (name ~) (type passive))
        (pin (num 2) (name ~) (type passive))))
    (libpart (lib Device) (part Jumper)
      (description "Jumper, normally closed")
      (docs ~)
      (footprints
        (fp SolderJumper*)
        (fp Jumper*)
        (fp TestPoint*2Pads*)
        (fp TestPoint*Bridge*))
      (fields
        (field (name Reference) JP)
        (field (name Value) Jumper))
      (pins
        (pin (num 1) (name 1) (type passive))
        (pin (num 2) (name 2) (type passive))))
    (libpart (lib Device) (part LED)
      (description "Light emitting diode")
      (docs ~)
      (footprints
        (fp LED*)
        (fp LED_SMD:*)
        (fp LED_THT:*))
      (fields
        (field (name Reference) D)
        (field (name Value) LED))
      (pins
        (pin (num 1) (name K) (type passive))
        (pin (num 2) (name A) (type passive))))
    (libpart (lib Device) (part R)
      (description Resistor)
      (docs ~)
      (footprints
        (fp R_*))
      (fields
        (field (name Reference) R)
        (field (name Value) R))
      (pins
        (pin (num 1) (name ~) (type passive))
        (pin (num 2) (name ~) (type passive))))
    (libpart (lib Interface_USB) (part FT230XS)
      (description "Full Speed USB to Basic UART, SSOP-16")
      (docs https://www.ftdichip.com/Support/Documents/DataSheets/ICs/DS_FT230X.pdf)
      (footprints
        (fp SSOP*3.9x4.9*P0.635mm*))
      (fields
        (field (name Reference) U)
        (field (name Value) FT230XS)
        (field (name Footprint) Package_SO:SSOP-16_3.9x4.9mm_P0.635mm))
      (pins
        (pin (num 1) (name TXD) (type output))
        (pin (num 2) (name ~RTS) (type output))
        (pin (num 3) (name VCCIO) (type power_in))
        (pin (num 4) (name RXD) (type input))
        (pin (num 5) (name GND) (type power_in))
        (pin (num 6) (name ~CTS) (type input))
        (pin (num 7) (name CBUS2) (type BiDi))
        (pin (num 8) (name USBDP) (type BiDi))
        (pin (num 9) (name USBDM) (type BiDi))
        (pin (num 10) (name 3V3OUT) (type power_out))
        (pin (num 11) (name ~RESET) (type input))
        (pin (num 12) (name VCC) (type power_in))
        (pin (num 13) (name GND) (type power_in))
        (pin (num 14) (name CBUS1) (type BiDi))
        (pin (num 15) (name CBUS0) (type BiDi))
        (pin (num 16) (name CBUS3) (type BiDi))))
    (libpart (lib MCU_Microchip_PIC12) (part PIC12F1822-IP)
      (aliases
        (alias PIC12LF1822-IP)
        (alias PIC12F1822-ISN)
        (alias PIC12LF1822-ISN)
        (alias PIC12F1822-IMC)
        (alias PIC12LF1822-IMC))
      (description "2kW FLASH, 128B SRAM, 256 EEPROM, PDIP8")
      (docs http://ww1.microchip.com/downloads/en/DeviceDoc/41413B.pdf)
      (footprints
        (fp DIP*W7.62mm*))
      (fields
        (field (name Reference) U)
        (field (name Value) PIC12F1822-IP)
        (field (name Footprint) Package_DIP:DIP-8_W7.62mm))
      (pins
        (pin (num 1) (name VDD) (type power_in))
        (pin (num 2) (name RA5) (type BiDi))
        (pin (num 3) (name RA4) (type BiDi))
        (pin (num 4) (name RA3) (type input))
        (pin (num 5) (name RA2) (type BiDi))
        (pin (num 6) (name RA1) (type BiDi))
        (pin (num 7) (name RA0) (type BiDi))
        (pin (num 8) (name VSS) (type power_in))))
    (libpart (lib Switch) (part SW_Push)
      (description "Push button switch, generic, two pins")
      (docs ~)
      (fields
        (field (name Reference) SW)
        (field (name Value) SW_Push))
      (pins
        (pin (num 1) (name 1) (type passive))
        (pin (num 2) (name 2) (type passive)))))
  (libraries
    (library (logical Connector)
      (uri /opt/kicad5.1.6/share/kicad/library/Connector.lib))
    (library (logical Connector_Generic)
      (uri /opt/kicad5.1.6/share/kicad/library/Connector_Generic.lib))
    (library (logical Device)
      (uri /opt/kicad5.1.6/share/kicad/library/Device.lib))
    (library (logical Interface_USB)
      (uri /opt/kicad5.1.6/share/kicad/library/Interface_USB.lib))
    (library (logical MCU_Microchip_PIC12)
      (uri /opt/kicad5.1.6/share/kicad/library/MCU_Microchip_PIC12.lib))
    (library (logical Switch)
      (uri /opt/kicad5.1.6/share/kicad/library/Switch.lib)))
  (nets
    (net (code 1) (name GND)
      (node (ref U2) (pin 5))
      (node (ref C4) (pin 2))
      (node (ref C1) (pin 2))
      (node (ref C5) (pin 2))
      (node (ref J3) (pin 5))
      (node (ref SW1) (pin 1))
      (node (ref C2) (pin 2))
      (node (ref C3) (pin 2))
      (node (ref U1) (pin 8))
      (node (ref U2) (pin 13))
      (node (ref D1) (pin 1))
      (node (ref J1) (pin 4)))
    (net (code 2) (name /MCLR)
      (node (ref U1) (pin 4))
      (node (ref SW1) (pin 2)))
    (net (code 3) (name "Net-(R3-Pad1)")
      (node (ref R3) (pin 1))
      (node (ref U1) (pin 7)))
    (net (code 4) (name "Net-(D1-Pad2)")
      (node (ref D1) (pin 2))
      (node (ref R3) (pin 2)))
    (net (code 5) (name "Net-(J3-Pad4)")
      (node (ref J3) (pin 4)))
    (net (code 6) (name "Net-(J3-Pad6)")
      (node (ref J3) (pin 6)))
    (net (code 7) (name "Net-(JP1-Pad1)")
      (node (ref R4) (pin 1))
      (node (ref R5) (pin 1))
      (node (ref JP1) (pin 1)))
    (net (code 8) (name VBUS)
      (node (ref J3) (pin 1))
      (node (ref C5) (pin 1))
      (node (ref J1) (pin 1))
      (node (ref C4) (pin 1))
      (node (ref U2) (pin 12))
      (node (ref JP1) (pin 2)))
    (net (code 9) (name "Net-(U1-Pad2)")
      (node (ref U2) (pin 1))
      (node (ref U1) (pin 2)))
    (net (code 10) (name "Net-(U1-Pad3)")
      (node (ref U1) (pin 3))
      (node (ref U2) (pin 4)))
    (net (code 11) (name "Net-(U2-Pad6)")
      (node (ref U2) (pin 6)))
    (net (code 12) (name "Net-(U2-Pad7)")
      (node (ref U2) (pin 7)))
    (net (code 13) (name "Net-(R1-Pad2)")
      (node (ref R1) (pin 2))
      (node (ref U2) (pin 9)))
    (net (code 14) (name "Net-(C2-Pad1)")
      (node (ref R2) (pin 1))
      (node (ref C2) (pin 1))
      (node (ref J3) (pin 3)))
    (net (code 15) (name "Net-(U2-Pad2)")
      (node (ref U2) (pin 2)))
    (net (code 16) (name /SDA)
      (node (ref J1) (pin 3))
      (node (ref U1) (pin 5))
      (node (ref R4) (pin 2)))
    (net (code 17) (name /SCL)
      (node (ref J1) (pin 2))
      (node (ref U1) (pin 6))
      (node (ref R5) (pin 2)))
    (net (code 18) (name "Net-(U2-Pad14)")
      (node (ref U2) (pin 14)))
    (net (code 19) (name "Net-(U2-Pad15)")
      (node (ref U2) (pin 15)))
    (net (code 20) (name "Net-(U2-Pad16)")
      (node (ref U2) (pin 16)))
    (net (code 21) (name +3V3)
      (node (ref U2) (pin 3))
      (node (ref U1) (pin 1))
      (node (ref C1) (pin 1))
      (node (ref U2) (pin 11))
      (node (ref U2) (pin 10)))
    (net (code 22) (name "Net-(C3-Pad1)")
      (node (ref J3) (pin 2))
      (node (ref C3) (pin 1))
      (node (ref R1) (pin 1)))
    (net (code 23) (name "Net-(R2-Pad2)")
      (node (ref U2) (pin 8))
      (node (ref R2) (pin 2)))))