EESchema Schematic File Version 4
EELAYER 30 0
EELAYER END
$Descr A4 11693 8268
encoding utf-8
Sheet 1 1
Title "LPC11Uxx USB test board"
Date "2 August 2020"
Rev "Rev.3"
Comp "Remy Horton"
Comment1 ""
Comment2 ""
Comment3 ""
Comment4 ""
$EndDescr
$Comp
L MCU_NXP_LPC:LPC11U12FBD48-201 U1
U 1 1 5F269BE0
P 2650 3150
F 0 "U1" V 3150 4550 50  0000 L CNN
F 1 "LPC11U12FBD48-201" V 2650 2750 50  0000 L CNN
F 2 "Package_QFP:LQFP-48_7x7mm_P0.5mm" H 3500 4650 50  0001 C CNN
F 3 "http://www.nxp.com/documents/data_sheet/LPC11U1X.pdf" H 2650 1675 50  0001 C CNN
	1    2650 3150
	0    1    1    0   
$EndComp
Wire Wire Line
	4150 3050 4150 3150
Wire Wire Line
	1150 3150 1150 3050
Text Label 2350 2450 1    50   ~ 0
SWDIO
Text Label 1950 2450 1    50   ~ 0
Tx
Text Label 2050 2450 1    50   ~ 0
Rx
Text Label 2850 2450 1    50   ~ 0
SWCLK
Text Label 3850 2450 1    50   ~ 0
nReset
Text Label 3550 2450 1    50   ~ 0
USBVBus
Text Label 3250 2450 1    50   ~ 0
USBConn
NoConn ~ 3850 3850
NoConn ~ 3750 3850
NoConn ~ 3650 3850
NoConn ~ 3550 3850
NoConn ~ 3450 3850
NoConn ~ 3350 3850
NoConn ~ 3250 3850
NoConn ~ 3150 3850
NoConn ~ 3050 3850
NoConn ~ 2950 3850
NoConn ~ 2850 3850
NoConn ~ 2750 3850
NoConn ~ 2650 3850
NoConn ~ 2550 3850
NoConn ~ 2450 3850
NoConn ~ 2350 3850
Text Label 2050 4200 0    50   ~ 0
USB+
$Comp
L Oscillator:SG-8002CA X1
U 1 1 5F2779AF
P 1000 3750
F 0 "X1" H 700 3600 50  0000 L CNN
F 1 "SG-8002CA" V 750 3800 50  0000 L CNN
F 2 "Oscillator:Oscillator_SMD_SeikoEpson_SG8002CA-4Pin_7.0x5.0mm" H 1700 3400 50  0001 C CNN
F 3 "https://support.epson.biz/td/api/doc_check.php?mode=dl&lang=en&Parts=SG-8002DC" H 900 3750 50  0001 C CNN
	1    1000 3750
	1    0    0    -1  
$EndComp
$Comp
L Device:C C4
U 1 1 5F2794C2
P 1450 4100
F 0 "C4" V 1400 4200 50  0000 C CNN
F 1 "100pF" V 1400 3950 50  0000 C CNN
F 2 "Capacitor_SMD:C_0805_2012Metric_Pad1.15x1.40mm_HandSolder" H 1488 3950 50  0001 C CNN
F 3 "~" H 1450 4100 50  0001 C CNN
	1    1450 4100
	0    -1   -1   0   
$EndComp
$Comp
L power:GND1 #PWR02
U 1 1 5F27A3E3
P 1000 4100
F 0 "#PWR02" H 1000 3850 50  0001 C CNN
F 1 "GND1" H 1005 3927 50  0000 C CNN
F 2 "" H 1000 4100 50  0001 C CNN
F 3 "" H 1000 4100 50  0001 C CNN
	1    1000 4100
	1    0    0    -1  
$EndComp
$Comp
L Device:C C3
U 1 1 5F27A89F
P 1450 3900
F 0 "C3" V 1400 4000 50  0000 C CNN
F 1 "100pF" V 1400 3750 50  0000 C CNN
F 2 "Capacitor_SMD:C_0805_2012Metric_Pad1.15x1.40mm_HandSolder" H 1488 3750 50  0001 C CNN
F 3 "~" H 1450 3900 50  0001 C CNN
	1    1450 3900
	0    -1   -1   0   
$EndComp
NoConn ~ 1550 3850
Wire Wire Line
	1000 4050 1000 4100
Wire Wire Line
	1000 4100 1300 4100
Connection ~ 1000 4100
Wire Wire Line
	1600 3900 1650 3900
Wire Wire Line
	1650 3900 1650 3850
Wire Wire Line
	1600 4100 1650 4100
Wire Wire Line
	1650 4100 1650 3900
Connection ~ 1650 3900
Wire Wire Line
	1300 3750 1300 3900
$Comp
L Device:C C2
U 1 1 5F280EA0
P 1150 2800
F 0 "C2" H 1150 2900 50  0000 L CNN
F 1 "C" H 1150 2700 50  0000 L CNN
F 2 "Capacitor_SMD:C_0805_2012Metric_Pad1.15x1.40mm_HandSolder" H 1188 2650 50  0001 C CNN
F 3 "~" H 1150 2800 50  0001 C CNN
	1    1150 2800
	1    0    0    -1  
$EndComp
$Comp
L power:GND1 #PWR04
U 1 1 5F2751B3
P 1150 3150
F 0 "#PWR04" H 1150 2900 50  0001 C CNN
F 1 "GND1" H 1155 2977 50  0000 C CNN
F 2 "" H 1150 3150 50  0001 C CNN
F 3 "" H 1150 3150 50  0001 C CNN
	1    1150 3150
	1    0    0    -1  
$EndComp
Connection ~ 1150 3150
$Comp
L Device:C C1
U 1 1 5F288978
P 950 2800
F 0 "C1" H 950 2900 50  0000 L CNN
F 1 "C" H 950 2700 50  0000 L CNN
F 2 "Capacitor_SMD:C_0805_2012Metric_Pad1.15x1.40mm_HandSolder" H 988 2650 50  0001 C CNN
F 3 "~" H 950 2800 50  0001 C CNN
	1    950  2800
	1    0    0    -1  
$EndComp
Wire Wire Line
	1150 3050 1150 2950
Connection ~ 1150 3050
Wire Wire Line
	950  2950 1150 2950
Connection ~ 1150 2950
$Comp
L power:+3.3V #PWR03
U 1 1 5F2892FA
P 1150 2650
F 0 "#PWR03" H 1150 2500 50  0001 C CNN
F 1 "+3.3V" H 1165 2823 50  0000 C CNN
F 2 "" H 1150 2650 50  0001 C CNN
F 3 "" H 1150 2650 50  0001 C CNN
	1    1150 2650
	1    0    0    -1  
$EndComp
Wire Wire Line
	950  2650 1150 2650
Connection ~ 1150 2650
Wire Wire Line
	1000 3450 900  3450
Wire Wire Line
	700  3450 700  3750
$Comp
L power:+3.3V #PWR01
U 1 1 5F28A588
P 900 3450
F 0 "#PWR01" H 900 3300 50  0001 C CNN
F 1 "+3.3V" H 915 3623 50  0000 C CNN
F 2 "" H 900 3450 50  0001 C CNN
F 3 "" H 900 3450 50  0001 C CNN
	1    900  3450
	1    0    0    -1  
$EndComp
Connection ~ 900  3450
Wire Wire Line
	900  3450 700  3450
$Comp
L power:+3.3V #PWR09
U 1 1 5F28AB3A
P 4150 3050
F 0 "#PWR09" H 4150 2900 50  0001 C CNN
F 1 "+3.3V" H 4165 3223 50  0000 C CNN
F 2 "" H 4150 3050 50  0001 C CNN
F 3 "" H 4150 3050 50  0001 C CNN
	1    4150 3050
	1    0    0    -1  
$EndComp
Connection ~ 4150 3050
NoConn ~ 1550 2450
NoConn ~ 1650 2450
NoConn ~ 1750 2450
NoConn ~ 1850 2450
NoConn ~ 2150 2450
NoConn ~ 2250 2450
NoConn ~ 2450 2450
NoConn ~ 2550 2450
NoConn ~ 2650 2450
NoConn ~ 2750 2450
NoConn ~ 2950 2450
NoConn ~ 3050 2450
NoConn ~ 3150 2450
NoConn ~ 3350 2450
NoConn ~ 3450 2450
NoConn ~ 3650 2450
NoConn ~ 3750 2450
$Comp
L Connector_Generic:Conn_01x03 J1
U 1 1 5F28DE1B
P 2950 4400
F 0 "J1" H 3050 4500 50  0000 C CNN
F 1 "Conn_01x03" H 2868 4166 50  0001 C CNN
F 2 "Connector_PinHeader_2.54mm:PinHeader_1x03_P2.54mm_Vertical" H 2950 4400 50  0001 C CNN
F 3 "~" H 2950 4400 50  0001 C CNN
	1    2950 4400
	-1   0    0    1   
$EndComp
Text Label 3150 4400 0    50   ~ 0
Rx
$Comp
L power:GND1 #PWR05
U 1 1 5F290B16
P 3150 4500
F 0 "#PWR05" H 3150 4250 50  0001 C CNN
F 1 "GND1" H 3155 4327 50  0000 C CNN
F 2 "" H 3150 4500 50  0001 C CNN
F 3 "" H 3150 4500 50  0001 C CNN
	1    3150 4500
	1    0    0    -1  
$EndComp
Text Label 1950 4200 2    50   ~ 0
USB-
Text Label 3150 4300 0    50   ~ 0
Tx
$Comp
L Connector:USB_B_Micro J2
U 1 1 5F29750F
P 3550 4550
F 0 "J2" H 3700 4200 50  0000 C CNN
F 1 "USB_B_Micro" H 3607 4926 50  0000 C CNN
F 2 "Connector_USB:USB_Mini-B_Wuerth_65100516121_Horizontal" H 3700 4500 50  0001 C CNN
F 3 "~" H 3700 4500 50  0001 C CNN
	1    3550 4550
	1    0    0    -1  
$EndComp
Text Label 4150 4200 0    50   ~ 0
USBVBus
$Comp
L Device:R R3
U 1 1 5F298369
P 4000 4350
F 0 "R3" V 3900 4350 50  0000 C CNN
F 1 "24k" V 4100 4350 50  0000 C CNN
F 2 "Resistor_SMD:R_0805_2012Metric_Pad1.15x1.40mm_HandSolder" V 3930 4350 50  0001 C CNN
F 3 "~" H 4000 4350 50  0001 C CNN
	1    4000 4350
	0    1    1    0   
$EndComp
$Comp
L Device:R R5
U 1 1 5F298D05
P 4600 4900
F 0 "R5" V 4500 4900 50  0000 C CNN
F 1 "1.5k" V 4700 4900 50  0000 C CNN
F 2 "Resistor_SMD:R_0805_2012Metric_Pad1.15x1.40mm_HandSolder" V 4530 4900 50  0001 C CNN
F 3 "~" H 4600 4900 50  0001 C CNN
	1    4600 4900
	0    1    1    0   
$EndComp
$Comp
L Device:R R4
U 1 1 5F29B0B6
P 4300 4350
F 0 "R4" V 4200 4350 50  0000 C CNN
F 1 "39k" V 4400 4350 50  0000 C CNN
F 2 "Resistor_SMD:R_0805_2012Metric_Pad1.15x1.40mm_HandSolder" V 4230 4350 50  0001 C CNN
F 3 "~" H 4300 4350 50  0001 C CNN
	1    4300 4350
	0    1    1    0   
$EndComp
Wire Wire Line
	4150 4350 4150 4200
Connection ~ 4150 4350
$Comp
L Device:R R1
U 1 1 5F29C271
P 1950 4000
F 0 "R1" H 1800 4050 50  0000 L CNN
F 1 "33" H 1800 3950 50  0000 L CNN
F 2 "Resistor_SMD:R_0805_2012Metric_Pad1.15x1.40mm_HandSolder" V 1880 4000 50  0001 C CNN
F 3 "~" H 1950 4000 50  0001 C CNN
	1    1950 4000
	1    0    0    -1  
$EndComp
$Comp
L Device:R R2
U 1 1 5F29CEA8
P 2050 4000
F 0 "R2" H 2120 4046 50  0000 L CNN
F 1 "33" H 2120 3955 50  0000 L CNN
F 2 "Resistor_SMD:R_0805_2012Metric_Pad1.15x1.40mm_HandSolder" V 1980 4000 50  0001 C CNN
F 3 "~" H 2050 4000 50  0001 C CNN
	1    2050 4000
	1    0    0    -1  
$EndComp
Wire Wire Line
	2050 4150 2050 4200
Wire Wire Line
	1950 4150 1950 4200
$Comp
L Transistor_BJT:DTA214Y Q1
U 1 1 5F29F26B
P 4850 4700
F 0 "Q1" H 4550 4600 50  0000 L CNN
F 1 "DTA214Y" H 4300 4850 50  0000 L CNN
F 2 "Package_TO_SOT_SMD:SOT-23_Handsoldering" H 4850 4700 50  0001 L CNN
F 3 "" H 4850 4700 50  0001 L CNN
	1    4850 4700
	-1   0    0    1   
$EndComp
Text Label 5100 4700 0    50   ~ 0
USBConn
$Comp
L power:+3.3V #PWR08
U 1 1 5F2A0608
P 4750 4500
F 0 "#PWR08" H 4750 4350 50  0001 C CNN
F 1 "+3.3V" H 4765 4673 50  0000 C CNN
F 2 "" H 4750 4500 50  0001 C CNN
F 3 "" H 4750 4500 50  0001 C CNN
	1    4750 4500
	1    0    0    -1  
$EndComp
$Comp
L Jumper:Jumper_3_Bridged12 JP1
U 1 1 5F2A15D1
P 4200 4750
F 0 "JP1" H 4000 4600 50  0000 C CNN
F 1 "Jumper_3_Bridged12" H 4200 4863 50  0001 C CNN
F 2 "Connector_PinHeader_2.54mm:PinHeader_1x03_P2.54mm_Vertical" H 4200 4750 50  0001 C CNN
F 3 "~" H 4200 4750 50  0001 C CNN
	1    4200 4750
	1    0    0    -1  
$EndComp
NoConn ~ 3850 4750
Text Label 4500 4650 0    50   ~ 0
USB-
Text Label 4500 4550 0    50   ~ 0
USB+
Wire Wire Line
	4450 4650 3850 4650
Wire Wire Line
	3950 4750 3950 4550
Wire Wire Line
	3950 4550 3850 4550
Wire Wire Line
	4450 4750 4450 4650
Wire Wire Line
	4450 4650 4500 4650
Connection ~ 4450 4650
Wire Wire Line
	3950 4550 4500 4550
Connection ~ 3950 4550
$Comp
L power:GND1 #PWR06
U 1 1 5F2A927C
P 3550 4950
F 0 "#PWR06" H 3550 4700 50  0001 C CNN
F 1 "GND1" H 3555 4777 50  0000 C CNN
F 2 "" H 3550 4950 50  0001 C CNN
F 3 "" H 3550 4950 50  0001 C CNN
	1    3550 4950
	1    0    0    -1  
$EndComp
NoConn ~ 3450 4950
$Comp
L power:GND1 #PWR07
U 1 1 5F2A998D
P 4550 4250
F 0 "#PWR07" H 4550 4000 50  0001 C CNN
F 1 "GND1" H 4555 4077 50  0000 C CNN
F 2 "" H 4550 4250 50  0001 C CNN
F 3 "" H 4550 4250 50  0001 C CNN
	1    4550 4250
	1    0    0    -1  
$EndComp
Wire Wire Line
	4450 4350 4450 4250
Wire Wire Line
	4450 4250 4550 4250
Wire Wire Line
	4450 4900 4200 4900
$Comp
L Connector_Generic:Conn_01x02 J3
U 1 1 5F2B060B
P 1800 4650
F 0 "J3" H 1900 4650 50  0000 C CNN
F 1 "Conn_01x02" H 1718 4416 50  0001 C CNN
F 2 "Connector_PinSocket_2.54mm:PinSocket_2x01_P2.54mm_Vertical" H 1800 4650 50  0001 C CNN
F 3 "~" H 1800 4650 50  0001 C CNN
	1    1800 4650
	-1   0    0    1   
$EndComp
$Comp
L power:GND1 #PWR011
U 1 1 5F2B1769
P 2000 4650
F 0 "#PWR011" H 2000 4400 50  0001 C CNN
F 1 "GND1" H 2005 4477 50  0000 C CNN
F 2 "" H 2000 4650 50  0001 C CNN
F 3 "" H 2000 4650 50  0001 C CNN
	1    2000 4650
	1    0    0    -1  
$EndComp
$Comp
L power:+3.3V #PWR010
U 1 1 5F2B20BC
P 2000 4550
F 0 "#PWR010" H 2000 4400 50  0001 C CNN
F 1 "+3.3V" H 2015 4723 50  0000 C CNN
F 2 "" H 2000 4550 50  0001 C CNN
F 3 "" H 2000 4550 50  0001 C CNN
	1    2000 4550
	1    0    0    -1  
$EndComp
Text Label 5300 3250 0    50   ~ 0
nReset
Text Label 5300 3150 0    50   ~ 0
SWCLK
Text Label 5300 3050 0    50   ~ 0
SWDIO
$Comp
L power:GND1 #PWR0101
U 1 1 5F2B5D5A
P 4800 3250
F 0 "#PWR0101" H 4800 3000 50  0001 C CNN
F 1 "GND1" H 4805 3077 50  0000 C CNN
F 2 "" H 4800 3250 50  0001 C CNN
F 3 "" H 4800 3250 50  0001 C CNN
	1    4800 3250
	1    0    0    -1  
$EndComp
$Comp
L power:+3.3V #PWR0102
U 1 1 5F2B87D2
P 4800 3050
F 0 "#PWR0102" H 4800 2900 50  0001 C CNN
F 1 "+3.3V" H 4815 3223 50  0000 C CNN
F 2 "" H 4800 3050 50  0001 C CNN
F 3 "" H 4800 3050 50  0001 C CNN
	1    4800 3050
	1    0    0    -1  
$EndComp
$Comp
L power:+3.3V #PWR0103
U 1 1 5F2B8E9D
P 1400 4600
F 0 "#PWR0103" H 1400 4450 50  0001 C CNN
F 1 "+3.3V" H 1415 4773 50  0000 C CNN
F 2 "" H 1400 4600 50  0001 C CNN
F 3 "" H 1400 4600 50  0001 C CNN
	1    1400 4600
	1    0    0    -1  
$EndComp
$Comp
L power:PWR_FLAG #FLG0101
U 1 1 5F2B9385
P 1400 4600
F 0 "#FLG0101" H 1400 4675 50  0001 C CNN
F 1 "PWR_FLAG" H 1400 4773 50  0000 C CNN
F 2 "" H 1400 4600 50  0001 C CNN
F 3 "~" H 1400 4600 50  0001 C CNN
	1    1400 4600
	-1   0    0    1   
$EndComp
$Comp
L Connector_Generic:Conn_02x03_Odd_Even J4
U 1 1 5F2F9E24
P 5000 3150
F 0 "J4" H 5050 3375 50  0000 C CNN
F 1 "Conn_02x03_Odd_Even" H 5050 3376 50  0001 C CNN
F 2 "micromatch:MicroMaTch-SMD-6" H 5000 3150 50  0001 C CNN
F 3 "~" H 5000 3150 50  0001 C CNN
	1    5000 3150
	1    0    0    -1  
$EndComp
NoConn ~ 4800 3150
$EndSCHEMATC
