EESchema Schematic File Version 4
EELAYER 30 0
EELAYER END
$Descr A4 11693 8268
encoding utf-8
Sheet 1 1
Title "PIC16F1823 Breakout"
Date "1 November 2020"
Rev "Rev.1"
Comp "Remy Horton"
Comment1 ""
Comment2 ""
Comment3 ""
Comment4 ""
$EndDescr
$Comp
L PIC16F1823:PIC16F1823 U2
U 1 1 5F9EF013
P 4200 4200
F 0 "U2" H 4700 4650 50  0000 C CNN
F 1 "PIC16F1823" H 3850 4650 50  0000 C CNN
F 2 "Package_SO:SOIC-14_3.9x8.7mm_P1.27mm" H 4200 3750 50  0001 C CNN
F 3 "" H 4200 4200 50  0001 C CNN
	1    4200 4200
	1    0    0    -1  
$EndComp
$Comp
L Connector:Barrel_Jack J1
U 1 1 5F9EED00
P 3150 3000
F 0 "J1" H 3150 3200 50  0000 C CNN
F 1 "Barrel_Jack" H 3207 3234 50  0001 C CNN
F 2 "Connector_BarrelJack:BarrelJack_CUI_PJ-102AH_Horizontal" H 3200 2960 50  0001 C CNN
F 3 "~" H 3200 2960 50  0001 C CNN
	1    3150 3000
	1    0    0    -1  
$EndComp
$Comp
L Regulator_Linear:uA7805 U1
U 1 1 5F9EF1FF
P 4050 2900
F 0 "U1" H 4050 3050 50  0000 C CNN
F 1 "uA7805" H 4050 3051 50  0001 C CNN
F 2 "Package_TO_SOT_SMD:SOT-223-3_TabPin2" H 4075 2750 50  0001 L CIN
F 3 "http://www.ti.com/lit/ds/symlink/ua78.pdf" H 4050 2850 50  0001 C CNN
	1    4050 2900
	1    0    0    -1  
$EndComp
$Comp
L Interface_USB:FT230XS U3
U 1 1 5F9EF822
P 4200 5650
F 0 "U3" H 4700 6250 50  0000 C CNN
F 1 "FT230XS" H 3800 6250 50  0000 C CNN
F 2 "Package_SO:SSOP-16_3.9x4.9mm_P0.635mm" H 5200 5050 50  0001 C CNN
F 3 "https://www.ftdichip.com/Support/Documents/DataSheets/ICs/DS_FT230X.pdf" H 4200 5650 50  0001 C CNN
	1    4200 5650
	1    0    0    -1  
$EndComp
$Comp
L Connector:Conn_PIC_ICSP_ICD J2
U 1 1 5F9F15C6
P 2750 4100
F 0 "J2" H 3150 4450 50  0000 R CNN
F 1 "Conn_PIC_ICSP_ICD" H 2421 4055 50  0001 R CNN
F 2 "Connector_PinSocket_2.54mm:PinSocket_1x06_P2.54mm_Vertical" H 2800 4250 50  0001 C CNN
F 3 "http://ww1.microchip.com/downloads/en/devicedoc/30277d.pdf" V 2450 3950 50  0001 C CNN
	1    2750 4100
	1    0    0    -1  
$EndComp
NoConn ~ 3250 4300
Wire Wire Line
	3450 3900 3300 3900
Wire Wire Line
	3300 3900 3300 4100
Wire Wire Line
	3300 4100 3250 4100
Wire Wire Line
	3450 4000 3350 4000
Wire Wire Line
	3350 4000 3350 4200
Wire Wire Line
	3350 4200 3250 4200
Wire Wire Line
	3250 3900 3250 3650
Wire Wire Line
	3250 3650 4950 3650
Wire Wire Line
	4950 3650 4950 3900
$Comp
L power:VCC #PWR02
U 1 1 5F9F4CC7
P 2550 3600
F 0 "#PWR02" H 2550 3450 50  0001 C CNN
F 1 "VCC" H 2565 3773 50  0000 C CNN
F 2 "" H 2550 3600 50  0001 C CNN
F 3 "" H 2550 3600 50  0001 C CNN
	1    2550 3600
	1    0    0    -1  
$EndComp
Wire Wire Line
	2550 3600 2550 3700
$Comp
L Connector_Generic:Conn_01x03 J4
U 1 1 5F9F587C
P 3000 4500
F 0 "J4" V 2918 4312 50  0000 R CNN
F 1 "Conn_01x03" V 2873 4312 50  0001 R CNN
F 2 "Connector_PinHeader_2.54mm:PinHeader_1x03_P2.54mm_Vertical" H 3000 4500 50  0001 C CNN
F 3 "~" H 3000 4500 50  0001 C CNN
	1    3000 4500
	0    -1   -1   0   
$EndComp
Wire Wire Line
	3450 4300 3300 4300
Wire Wire Line
	3300 4300 3300 4700
Wire Wire Line
	3300 4700 3100 4700
Wire Wire Line
	3450 4400 3350 4400
Wire Wire Line
	3350 4400 3350 4750
Wire Wire Line
	3350 4750 3000 4750
Wire Wire Line
	3000 4750 3000 4700
Wire Wire Line
	4200 4850 4200 4800
Wire Wire Line
	2550 4500 2550 4850
Connection ~ 2550 3600
Wire Wire Line
	4050 3200 3850 3200
$Comp
L power:GND #PWR01
U 1 1 5F9F81B9
P 3850 3200
F 0 "#PWR01" H 3850 2950 50  0001 C CNN
F 1 "GND" H 3855 3027 50  0000 C CNN
F 2 "" H 3850 3200 50  0001 C CNN
F 3 "" H 3850 3200 50  0001 C CNN
	1    3850 3200
	1    0    0    -1  
$EndComp
Connection ~ 3850 3200
$Comp
L power:VCC #PWR03
U 1 1 5F9F8B6E
P 4400 2900
F 0 "#PWR03" H 4400 2750 50  0001 C CNN
F 1 "VCC" H 4415 3073 50  0000 C CNN
F 2 "" H 4400 2900 50  0001 C CNN
F 3 "" H 4400 2900 50  0001 C CNN
	1    4400 2900
	1    0    0    -1  
$EndComp
Wire Wire Line
	2900 4700 2900 4850
Connection ~ 2900 4850
Wire Wire Line
	2900 4850 4200 4850
Wire Wire Line
	2550 3600 4200 3600
$Comp
L Connector:USB_B_Mini J3
U 1 1 5F9FAD99
P 2650 5400
F 0 "J3" H 2800 5750 50  0000 C CNN
F 1 "USB_B_Mini" H 2707 5776 50  0001 C CNN
F 2 "Connector_USB:USB_Mini-B_Wuerth_65100516121_Horizontal" H 2800 5350 50  0001 C CNN
F 3 "~" H 2800 5350 50  0001 C CNN
	1    2650 5400
	1    0    0    -1  
$EndComp
$Comp
L power:GND #PWR04
U 1 1 5F9FD8F6
P 4200 6350
F 0 "#PWR04" H 4200 6100 50  0001 C CNN
F 1 "GND" H 4205 6177 50  0000 C CNN
F 2 "" H 4200 6350 50  0001 C CNN
F 3 "" H 4200 6350 50  0001 C CNN
	1    4200 6350
	1    0    0    -1  
$EndComp
$Comp
L Device:C C2
U 1 1 5F9FFDD6
P 3450 6100
F 0 "C2" H 3400 6000 50  0000 R CNN
F 1 "100nF" H 3700 6000 50  0000 R CNN
F 2 "Capacitor_SMD:C_0805_2012Metric_Pad1.15x1.40mm_HandSolder" H 3488 5950 50  0001 C CNN
F 3 "~" H 3450 6100 50  0001 C CNN
	1    3450 6100
	-1   0    0    1   
$EndComp
Wire Wire Line
	4300 4950 4300 4900
Wire Wire Line
	4300 6350 4200 6350
Connection ~ 4200 6350
Wire Wire Line
	4200 6350 4100 6350
Connection ~ 4100 6350
Wire Wire Line
	3450 4900 4300 4900
Wire Wire Line
	3500 5250 3450 5250
Wire Wire Line
	3450 5250 3450 4900
Wire Wire Line
	3250 5500 3500 5500
Wire Wire Line
	3500 5500 3500 5550
Wire Wire Line
	3250 5400 3400 5400
Wire Wire Line
	3400 5400 3400 5650
Wire Wire Line
	3400 5650 3500 5650
NoConn ~ 2950 5600
NoConn ~ 2550 5800
NoConn ~ 2950 5200
NoConn ~ 4900 5450
NoConn ~ 4900 5550
NoConn ~ 4900 5750
NoConn ~ 4900 5850
NoConn ~ 4900 5950
NoConn ~ 4900 6050
Wire Wire Line
	3500 5850 3350 5850
Wire Wire Line
	3350 5850 3350 4950
Wire Wire Line
	3350 4950 4100 4950
Wire Wire Line
	2550 3600 2400 3600
Wire Wire Line
	2400 3600 2400 4950
Connection ~ 3350 4950
Wire Wire Line
	3450 5250 3450 5950
Connection ~ 3450 5250
Wire Wire Line
	3450 6250 3450 6350
Connection ~ 3450 6350
Wire Wire Line
	3450 6350 4100 6350
$Comp
L Device:LED D1
U 1 1 5FA1883A
P 3100 6250
F 0 "D1" V 3150 6150 50  0000 R CNN
F 1 "LED" V 3050 6150 50  0000 R CNN
F 2 "LED_SMD:LED_0805_2012Metric" H 3100 6250 50  0001 C CNN
F 3 "~" H 3100 6250 50  0001 C CNN
	1    3100 6250
	-1   0    0    1   
$EndComp
Wire Wire Line
	3450 4500 3450 4700
$Comp
L Device:R R1
U 1 1 5FA1A5E7
P 2800 6250
F 0 "R1" H 2870 6296 50  0000 L CNN
F 1 "R" H 2870 6205 50  0000 L CNN
F 2 "Resistor_SMD:R_0805_2012Metric_Pad1.15x1.40mm_HandSolder" V 2730 6250 50  0001 C CNN
F 3 "~" H 2800 6250 50  0001 C CNN
	1    2800 6250
	0    -1   -1   0   
$EndComp
Wire Wire Line
	4400 2900 4350 2900
Connection ~ 4050 3200
Wire Wire Line
	4400 4900 4350 4900
Wire Wire Line
	4350 4900 4350 4850
Wire Wire Line
	4350 4850 4200 4850
Connection ~ 4200 4850
Wire Wire Line
	5050 4300 4950 4300
Wire Wire Line
	5100 4100 4950 4100
Wire Wire Line
	5150 4000 4950 4000
$Comp
L Connector_Generic:Conn_01x05 J5
U 1 1 5FA2C53A
P 4600 4700
F 0 "J5" V 4600 5050 50  0000 R CNN
F 1 "Conn_01x05" V 4473 4412 50  0001 R CNN
F 2 "Connector_PinSocket_2.54mm:PinSocket_1x05_P2.54mm_Vertical" H 4600 4700 50  0001 C CNN
F 3 "~" H 4600 4700 50  0001 C CNN
	1    4600 4700
	0    -1   -1   0   
$EndComp
Wire Wire Line
	3450 4100 3400 4100
Wire Wire Line
	3400 4100 3400 5000
Wire Wire Line
	3400 5000 4500 5000
Wire Wire Line
	4500 5000 4500 4900
Wire Wire Line
	4600 4900 4600 4950
Wire Wire Line
	4600 4950 5050 4950
Wire Wire Line
	5050 4950 5050 4300
Wire Wire Line
	4700 4900 4700 5000
Wire Wire Line
	4700 5000 5100 5000
Wire Wire Line
	5100 5000 5100 4100
Wire Wire Line
	4800 4900 5150 4900
Wire Wire Line
	5150 4900 5150 4000
$Comp
L power:PWR_FLAG #FLG0101
U 1 1 5FA3DE39
P 3650 2900
F 0 "#FLG0101" H 3650 2975 50  0001 C CNN
F 1 "PWR_FLAG" H 3650 3073 50  0000 C CNN
F 2 "" H 3650 2900 50  0001 C CNN
F 3 "~" H 3650 2900 50  0001 C CNN
	1    3650 2900
	1    0    0    -1  
$EndComp
Wire Wire Line
	3650 2900 3750 2900
Wire Wire Line
	3650 2900 3450 2900
Connection ~ 3650 2900
Wire Wire Line
	3450 3100 3450 3200
Wire Wire Line
	2400 4950 3350 4950
Wire Wire Line
	3450 3200 3850 3200
Wire Wire Line
	2550 4850 2900 4850
$Comp
L Device:R R3
U 1 1 5FA48159
P 3100 5500
F 0 "R3" H 3170 5546 50  0000 L CNN
F 1 "27" H 3170 5455 50  0000 L CNN
F 2 "Resistor_SMD:R_0805_2012Metric_Pad1.15x1.40mm_HandSolder" V 3030 5500 50  0001 C CNN
F 3 "~" H 3100 5500 50  0001 C CNN
	1    3100 5500
	0    1    1    0   
$EndComp
$Comp
L Device:R R2
U 1 1 5FA4A27D
P 3100 5400
F 0 "R2" H 2950 5450 50  0000 L CNN
F 1 "27" H 2950 5350 50  0000 L CNN
F 2 "Resistor_SMD:R_0805_2012Metric_Pad1.15x1.40mm_HandSolder" V 3030 5400 50  0001 C CNN
F 3 "~" H 3100 5400 50  0001 C CNN
	1    3100 5400
	0    1    1    0   
$EndComp
Text GLabel 3650 4700 2    50   Input ~ 0
LED
Wire Wire Line
	3650 4700 3450 4700
Text GLabel 2650 6250 0    50   Input ~ 0
LED
Wire Wire Line
	2550 4850 2350 4850
Wire Wire Line
	2350 4850 2350 5900
Wire Wire Line
	2350 6350 3250 6350
Connection ~ 2550 4850
Wire Wire Line
	3250 6250 3250 6350
Connection ~ 3250 6350
Wire Wire Line
	3250 6350 3450 6350
Wire Wire Line
	2350 5900 2650 5900
Wire Wire Line
	2650 5900 2650 5800
Connection ~ 2350 5900
Wire Wire Line
	2350 5900 2350 6350
$Comp
L Device:C C1
U 1 1 5FA58E68
P 4400 3050
F 0 "C1" H 4550 3150 50  0000 R CNN
F 1 "100nF" H 4650 2950 50  0000 R CNN
F 2 "Capacitor_SMD:C_0805_2012Metric_Pad1.15x1.40mm_HandSolder" H 4438 2900 50  0001 C CNN
F 3 "~" H 4400 3050 50  0001 C CNN
	1    4400 3050
	1    0    0    -1  
$EndComp
Connection ~ 4400 2900
Wire Wire Line
	4050 3200 4400 3200
Wire Wire Line
	4950 4500 4950 5250
Wire Wire Line
	4950 5250 4900 5250
Wire Wire Line
	4950 4400 5000 4400
Wire Wire Line
	5000 4400 5000 5350
Wire Wire Line
	4900 5350 5000 5350
$EndSCHEMATC
