EESchema Schematic File Version 4
EELAYER 30 0
EELAYER END
$Descr A4 11693 8268
encoding utf-8
Sheet 1 1
Title ""
Date ""
Rev ""
Comp ""
Comment1 ""
Comment2 ""
Comment3 ""
Comment4 ""
$EndDescr
$Comp
L MCU_Microchip_PIC12:PIC12F1840-IP U3
U 1 1 5F144FCA
P 3950 3050
F 0 "U3" H 3600 3500 50  0000 C CNN
F 1 "PIC12F1840-IP" H 4250 3500 50  0000 C CNN
F 2 "Package_DIP:DIP-8_W7.62mm" H 4550 3700 50  0001 C CNN
F 3 "http://ww1.microchip.com/downloads/en/DeviceDoc/41441B.pdf" H 3950 3050 50  0001 C CNN
	1    3950 3050
	1    0    0    -1  
$EndComp
$Comp
L power:GND #PWR02
U 1 1 5F146762
P 2500 3650
F 0 "#PWR02" H 2500 3400 50  0001 C CNN
F 1 "GND" H 2505 3477 50  0000 C CNN
F 2 "" H 2500 3650 50  0001 C CNN
F 3 "" H 2500 3650 50  0001 C CNN
	1    2500 3650
	1    0    0    -1  
$EndComp
$Comp
L power:VCC #PWR05
U 1 1 5F147599
P 2900 3050
F 0 "#PWR05" H 2900 2900 50  0001 C CNN
F 1 "VCC" H 2915 3223 50  0000 C CNN
F 2 "" H 2900 3050 50  0001 C CNN
F 3 "" H 2900 3050 50  0001 C CNN
	1    2900 3050
	1    0    0    -1  
$EndComp
$Comp
L Analog_ADC:MCP3428 U1
U 1 1 5F1499DE
P 2100 3050
F 0 "U1" H 1850 3500 50  0000 C CNN
F 1 "MCP3428" H 2300 3500 50  0000 C CNN
F 2 "Package_SO:SOIC-14_3.9x8.7mm_P1.27mm" H 2100 3050 50  0001 C CNN
F 3 "http://ww1.microchip.com/downloads/en/DeviceDoc/22226a.pdf" H 2100 3050 50  0001 C CNN
	1    2100 3050
	1    0    0    -1  
$EndComp
$Comp
L Connector_Generic:Conn_01x08 J1
U 1 1 5F14A4E0
P 1500 3150
F 0 "J1" H 1500 2600 50  0000 C CNN
F 1 "Conn_01x08" V 1600 3150 50  0000 C CNN
F 2 "Connector_PinSocket_2.54mm:PinSocket_1x08_P2.54mm_Vertical" H 1500 3150 50  0001 C CNN
F 3 "~" H 1500 3150 50  0001 C CNN
	1    1500 3150
	-1   0    0    1   
$EndComp
Wire Wire Line
	2500 3150 2500 3250
Wire Wire Line
	2500 3250 2500 3650
Wire Wire Line
	2500 3650 2100 3650
Connection ~ 2500 3250
Connection ~ 2500 3650
$Comp
L power:VCC #PWR01
U 1 1 5F159C5E
P 2100 2550
F 0 "#PWR01" H 2100 2400 50  0001 C CNN
F 1 "VCC" H 2115 2723 50  0000 C CNN
F 2 "" H 2100 2550 50  0001 C CNN
F 3 "" H 2100 2550 50  0001 C CNN
	1    2100 2550
	1    0    0    -1  
$EndComp
$Comp
L power:VCC #PWR07
U 1 1 5F159F7A
P 3950 2450
F 0 "#PWR07" H 3950 2300 50  0001 C CNN
F 1 "VCC" H 3965 2623 50  0000 C CNN
F 2 "" H 3950 2450 50  0001 C CNN
F 3 "" H 3950 2450 50  0001 C CNN
	1    3950 2450
	1    0    0    -1  
$EndComp
$Comp
L Sensor_Temperature:LM35-D U2
U 1 1 5F1446FB
P 2900 3350
F 0 "U2" H 2700 3600 50  0000 R CNN
F 1 "LM35-D" H 3250 3600 50  0000 R CNN
F 2 "Package_SO:SOIC-8_3.9x4.9mm_P1.27mm" H 2900 2950 50  0001 C CNN
F 3 "http://www.ti.com/lit/ds/symlink/lm35.pdf" H 2900 3350 50  0001 C CNN
	1    2900 3350
	1    0    0    -1  
$EndComp
Wire Wire Line
	2500 3650 2900 3650
$Comp
L Connector_Generic:Conn_01x03 J3
U 1 1 5F15D271
P 4800 3050
F 0 "J3" H 4750 3250 50  0000 L CNN
F 1 "Conn_01x03" H 4400 2850 50  0000 L CNN
F 2 "Connector_PinSocket_2.54mm:PinSocket_1x03_P2.54mm_Vertical" H 4800 3050 50  0001 C CNN
F 3 "~" H 4800 3050 50  0001 C CNN
	1    4800 3050
	1    0    0    -1  
$EndComp
$Comp
L power:GND #PWR08
U 1 1 5F15D82E
P 4600 2950
F 0 "#PWR08" H 4600 2700 50  0001 C CNN
F 1 "GND" H 4605 2777 50  0000 C CNN
F 2 "" H 4600 2950 50  0001 C CNN
F 3 "" H 4600 2950 50  0001 C CNN
	1    4600 2950
	-1   0    0    1   
$EndComp
Wire Wire Line
	4600 3050 4550 3050
Wire Wire Line
	4600 3150 4550 3150
$Comp
L Connector:Conn_01x02_Female J2
U 1 1 5F160F61
P 2650 1650
F 0 "J2" H 2700 1600 50  0000 C CNN
F 1 "Conn_01x02_Female" H 2542 1416 50  0001 C CNN
F 2 "Connector_PinSocket_2.54mm:PinSocket_1x02_P2.54mm_Vertical" H 2650 1650 50  0001 C CNN
F 3 "~" H 2650 1650 50  0001 C CNN
	1    2650 1650
	-1   0    0    1   
$EndComp
$Comp
L power:GND #PWR04
U 1 1 5F1615C5
P 2850 1650
F 0 "#PWR04" H 2850 1400 50  0001 C CNN
F 1 "GND" H 2855 1477 50  0000 C CNN
F 2 "" H 2850 1650 50  0001 C CNN
F 3 "" H 2850 1650 50  0001 C CNN
	1    2850 1650
	1    0    0    -1  
$EndComp
$Comp
L power:VCC #PWR03
U 1 1 5F1618AB
P 2850 1550
F 0 "#PWR03" H 2850 1400 50  0001 C CNN
F 1 "VCC" H 2865 1723 50  0000 C CNN
F 2 "" H 2850 1550 50  0001 C CNN
F 3 "" H 2850 1550 50  0001 C CNN
	1    2850 1550
	1    0    0    -1  
$EndComp
$Comp
L power:PWR_FLAG #FLG02
U 1 1 5F161B0F
P 2850 1650
F 0 "#FLG02" H 2850 1725 50  0001 C CNN
F 1 "PWR_FLAG" V 2850 1778 50  0000 L CNN
F 2 "" H 2850 1650 50  0001 C CNN
F 3 "~" H 2850 1650 50  0001 C CNN
	1    2850 1650
	0    1    1    0   
$EndComp
Connection ~ 2850 1650
$Comp
L power:PWR_FLAG #FLG01
U 1 1 5F1684F8
P 2850 1550
F 0 "#FLG01" H 2850 1625 50  0001 C CNN
F 1 "PWR_FLAG" V 2850 1678 50  0000 L CNN
F 2 "" H 2850 1550 50  0001 C CNN
F 3 "~" H 2850 1550 50  0001 C CNN
	1    2850 1550
	0    1    1    0   
$EndComp
Connection ~ 2850 1550
Wire Wire Line
	3250 2950 3250 3150
Wire Wire Line
	3350 3150 3250 3150
Wire Wire Line
	3300 3350 3400 3350
Wire Wire Line
	2500 2850 3300 2850
Wire Wire Line
	3300 2850 3300 3050
Wire Wire Line
	3300 3050 3350 3050
Wire Wire Line
	3350 2950 3350 3000
Wire Wire Line
	3350 3000 3400 3000
Wire Wire Line
	3400 3000 3400 3350
$Comp
L Device:R R1
U 1 1 5F16AE92
P 3150 2650
F 0 "R1" H 3000 2700 50  0000 L CNN
F 1 "12k" H 2950 2600 50  0000 L CNN
F 2 "Resistor_SMD:R_1206_3216Metric_Pad1.42x1.75mm_HandSolder" V 3080 2650 50  0001 C CNN
F 3 "~" H 3150 2650 50  0001 C CNN
	1    3150 2650
	1    0    0    -1  
$EndComp
$Comp
L Device:R R2
U 1 1 5F16B282
P 3300 2700
F 0 "R2" H 3370 2746 50  0000 L CNN
F 1 "12k" H 3370 2655 50  0000 L CNN
F 2 "Resistor_SMD:R_1206_3216Metric_Pad1.42x1.75mm_HandSolder" V 3230 2700 50  0001 C CNN
F 3 "~" H 3300 2700 50  0001 C CNN
	1    3300 2700
	1    0    0    -1  
$EndComp
Connection ~ 3300 2850
Wire Wire Line
	3150 2800 3150 2950
Wire Wire Line
	2500 2950 3150 2950
Connection ~ 3150 2950
Wire Wire Line
	3150 2950 3250 2950
Wire Wire Line
	3300 2550 3300 2500
Wire Wire Line
	3300 2500 3150 2500
$Comp
L power:VCC #PWR06
U 1 1 5F16C7C5
P 3300 2500
F 0 "#PWR06" H 3300 2350 50  0001 C CNN
F 1 "VCC" H 3315 2673 50  0000 C CNN
F 2 "" H 3300 2500 50  0001 C CNN
F 3 "" H 3300 2500 50  0001 C CNN
	1    3300 2500
	1    0    0    -1  
$EndComp
Connection ~ 3300 2500
NoConn ~ 4550 2950
Connection ~ 2900 3650
Wire Wire Line
	2900 3650 3950 3650
$Comp
L Device:C C1
U 1 1 5F1726AA
P 3550 1600
F 0 "C1" H 3665 1646 50  0000 L CNN
F 1 "C" H 3665 1555 50  0000 L CNN
F 2 "Capacitor_SMD:C_0805_2012Metric_Pad1.15x1.40mm_HandSolder" H 3588 1450 50  0001 C CNN
F 3 "~" H 3550 1600 50  0001 C CNN
	1    3550 1600
	1    0    0    -1  
$EndComp
$Comp
L power:VCC #PWR09
U 1 1 5F172943
P 3550 1450
F 0 "#PWR09" H 3550 1300 50  0001 C CNN
F 1 "VCC" H 3565 1623 50  0000 C CNN
F 2 "" H 3550 1450 50  0001 C CNN
F 3 "" H 3550 1450 50  0001 C CNN
	1    3550 1450
	1    0    0    -1  
$EndComp
$Comp
L power:GND #PWR010
U 1 1 5F172C8E
P 3550 1750
F 0 "#PWR010" H 3550 1500 50  0001 C CNN
F 1 "GND" H 3555 1577 50  0000 C CNN
F 2 "" H 3550 1750 50  0001 C CNN
F 3 "" H 3550 1750 50  0001 C CNN
	1    3550 1750
	1    0    0    -1  
$EndComp
$EndSCHEMATC
