EESchema Schematic File Version 4
LIBS:thermo-cache
EELAYER 30 0
EELAYER END
$Descr A4 11693 8268
encoding utf-8
Sheet 1 1
Title "Thermocouple sensor"
Date "16 Sept. 2020"
Rev "Rev.2"
Comp "Remy Horton"
Comment1 ""
Comment2 ""
Comment3 ""
Comment4 ""
$EndDescr
$Comp
L Analog_ADC:MCP3428 U1
U 1 1 5F1499DE
P 2100 3050
F 0 "U1" H 1850 3500 50  0000 C CNN
F 1 "MCP3428" H 2300 3500 50  0000 C CNN
F 2 "Package_SO:SOIC-14_3.9x8.7mm_P1.27mm" H 2100 3050 50  0001 C CNN
F 3 "http://ww1.microchip.com/downloads/en/DeviceDoc/22226a.pdf" H 2100 3050 50  0001 C CNN
	1    2100 3050
	1    0    0    -1  
$EndComp
Wire Wire Line
	2500 3650 2100 3650
$Comp
L Sensor_Temperature:LM35-D U2
U 1 1 5F1446FB
P 1050 3350
F 0 "U2" H 850 3600 50  0000 R CNN
F 1 "LM35-D" H 1400 3600 50  0000 R CNN
F 2 "Package_SO:SOIC-8_3.9x4.9mm_P1.27mm" H 1050 2950 50  0001 C CNN
F 3 "http://www.ti.com/lit/ds/symlink/lm35.pdf" H 1050 3350 50  0001 C CNN
	1    1050 3350
	1    0    0    -1  
$EndComp
$Comp
L power:GND #PWR04
U 1 1 5F1615C5
P 2850 1650
F 0 "#PWR04" H 2850 1400 50  0001 C CNN
F 1 "GND" H 2855 1477 50  0000 C CNN
F 2 "" H 2850 1650 50  0001 C CNN
F 3 "" H 2850 1650 50  0001 C CNN
	1    2850 1650
	1    0    0    -1  
$EndComp
$Comp
L power:VCC #PWR03
U 1 1 5F1618AB
P 2850 1550
F 0 "#PWR03" H 2850 1400 50  0001 C CNN
F 1 "VCC" H 2865 1723 50  0000 C CNN
F 2 "" H 2850 1550 50  0001 C CNN
F 3 "" H 2850 1550 50  0001 C CNN
	1    2850 1550
	1    0    0    -1  
$EndComp
$Comp
L Connector_Generic:Conn_01x06 J1
U 1 1 5F624621
P 1500 3050
F 0 "J1" H 1418 2617 50  0000 C CNN
F 1 "Conn_01x06" H 1418 2616 50  0001 C CNN
F 2 "Connector_PinSocket_2.54mm:PinSocket_1x06_P2.54mm_Vertical" H 1500 3050 50  0001 C CNN
F 3 "~" H 1500 3050 50  0001 C CNN
	1    1500 3050
	-1   0    0    1   
$EndComp
Wire Wire Line
	1700 3350 1450 3350
Connection ~ 2100 3650
Wire Wire Line
	1050 3650 1600 3650
Wire Wire Line
	1700 3450 1600 3450
Wire Wire Line
	1600 3450 1600 3650
Connection ~ 1600 3650
Wire Wire Line
	1600 3650 2100 3650
$Comp
L Connector_Generic:Conn_01x04 J3
U 1 1 5F62D6D4
P 2800 2850
F 0 "J3" H 2880 2842 50  0000 L CNN
F 1 "Conn_01x04" H 2880 2751 50  0000 L CNN
F 2 "Connector_PinHeader_2.54mm:PinHeader_1x04_P2.54mm_Vertical" H 2800 2850 50  0001 C CNN
F 3 "~" H 2800 2850 50  0001 C CNN
	1    2800 2850
	1    0    0    -1  
$EndComp
Wire Wire Line
	2500 3150 2500 3250
Connection ~ 2500 3250
Wire Wire Line
	2500 3050 2500 3150
Connection ~ 2500 3150
Wire Wire Line
	2600 2500 2600 2750
Wire Wire Line
	2100 2500 2100 2550
Wire Wire Line
	2500 3250 2500 3650
$Comp
L power:PWR_FLAG #FLG02
U 1 1 5F161B0F
P 2850 1650
F 0 "#FLG02" H 2850 1725 50  0001 C CNN
F 1 "PWR_FLAG" V 2850 1778 50  0000 L CNN
F 2 "" H 2850 1650 50  0001 C CNN
F 3 "~" H 2850 1650 50  0001 C CNN
	1    2850 1650
	0    1    1    0   
$EndComp
$Comp
L power:PWR_FLAG #FLG01
U 1 1 5F1684F8
P 2850 1550
F 0 "#FLG01" H 2850 1625 50  0001 C CNN
F 1 "PWR_FLAG" V 2850 1678 50  0000 L CNN
F 2 "" H 2850 1550 50  0001 C CNN
F 3 "~" H 2850 1550 50  0001 C CNN
	1    2850 1550
	0    1    1    0   
$EndComp
Wire Wire Line
	2100 2500 1050 2500
Wire Wire Line
	1050 2500 1050 3050
$Comp
L power:VCC #PWR0101
U 1 1 5F638C38
P 2600 2500
F 0 "#PWR0101" H 2600 2350 50  0001 C CNN
F 1 "VCC" H 2615 2673 50  0000 C CNN
F 2 "" H 2600 2500 50  0001 C CNN
F 3 "" H 2600 2500 50  0001 C CNN
	1    2600 2500
	1    0    0    -1  
$EndComp
$Comp
L power:GND #PWR0102
U 1 1 5F6390B1
P 2600 3050
F 0 "#PWR0102" H 2600 2800 50  0001 C CNN
F 1 "GND" H 2605 2877 50  0000 C CNN
F 2 "" H 2600 3050 50  0001 C CNN
F 3 "" H 2600 3050 50  0001 C CNN
	1    2600 3050
	1    0    0    -1  
$EndComp
Wire Wire Line
	2100 2500 2600 2500
Connection ~ 2100 2500
Connection ~ 2600 2500
Wire Wire Line
	2600 2850 2500 2850
Wire Wire Line
	2500 2950 2600 2950
Wire Wire Line
	2600 3050 2500 3050
Connection ~ 2600 3050
$EndSCHEMATC
