G04 #@! TF.GenerationSoftware,KiCad,Pcbnew,5.1.12*
G04 #@! TF.CreationDate,2023-08-12T15:40:54+01:00*
G04 #@! TF.ProjectId,programmingseat,70726f67-7261-46d6-9d69-6e6773656174,rev?*
G04 #@! TF.SameCoordinates,Original*
G04 #@! TF.FileFunction,Legend,Top*
G04 #@! TF.FilePolarity,Positive*
%FSLAX46Y46*%
G04 Gerber Fmt 4.6, Leading zero omitted, Abs format (unit mm)*
G04 Created by KiCad (PCBNEW 5.1.12) date 2023-08-12 15:40:54*
%MOMM*%
%LPD*%
G01*
G04 APERTURE LIST*
%ADD10C,0.150000*%
%ADD11C,0.100000*%
%ADD12C,0.325000*%
%ADD13C,0.120000*%
G04 APERTURE END LIST*
D10*
X139924404Y-57602380D02*
X139352976Y-57602380D01*
X139638690Y-57602380D02*
X139638690Y-56602380D01*
X139543452Y-56745238D01*
X139448214Y-56840476D01*
X139352976Y-56888095D01*
D11*
G36*
X137160000Y-57785000D02*
G01*
X135890000Y-56515000D01*
X138430000Y-56515000D01*
X137160000Y-57785000D01*
G37*
X137160000Y-57785000D02*
X135890000Y-56515000D01*
X138430000Y-56515000D01*
X137160000Y-57785000D01*
D12*
X124779107Y-75737142D02*
X124345773Y-75737142D01*
X124345773Y-76418095D02*
X124345773Y-75118095D01*
X124964821Y-75118095D01*
X125645773Y-76418095D02*
X125521964Y-76356190D01*
X125460059Y-76232380D01*
X125460059Y-75118095D01*
X126698154Y-76418095D02*
X126698154Y-75737142D01*
X126636250Y-75613333D01*
X126512440Y-75551428D01*
X126264821Y-75551428D01*
X126141011Y-75613333D01*
X126698154Y-76356190D02*
X126574345Y-76418095D01*
X126264821Y-76418095D01*
X126141011Y-76356190D01*
X126079107Y-76232380D01*
X126079107Y-76108571D01*
X126141011Y-75984761D01*
X126264821Y-75922857D01*
X126574345Y-75922857D01*
X126698154Y-75860952D01*
X127255297Y-76356190D02*
X127379107Y-76418095D01*
X127626726Y-76418095D01*
X127750535Y-76356190D01*
X127812440Y-76232380D01*
X127812440Y-76170476D01*
X127750535Y-76046666D01*
X127626726Y-75984761D01*
X127441011Y-75984761D01*
X127317202Y-75922857D01*
X127255297Y-75799047D01*
X127255297Y-75737142D01*
X127317202Y-75613333D01*
X127441011Y-75551428D01*
X127626726Y-75551428D01*
X127750535Y-75613333D01*
X128369583Y-76418095D02*
X128369583Y-75118095D01*
X128926726Y-76418095D02*
X128926726Y-75737142D01*
X128864821Y-75613333D01*
X128741011Y-75551428D01*
X128555297Y-75551428D01*
X128431488Y-75613333D01*
X128369583Y-75675238D01*
X129545773Y-76418095D02*
X129545773Y-75551428D01*
X129545773Y-75118095D02*
X129483869Y-75180000D01*
X129545773Y-75241904D01*
X129607678Y-75180000D01*
X129545773Y-75118095D01*
X129545773Y-75241904D01*
X130164821Y-75551428D02*
X130164821Y-76418095D01*
X130164821Y-75675238D02*
X130226726Y-75613333D01*
X130350535Y-75551428D01*
X130536250Y-75551428D01*
X130660059Y-75613333D01*
X130721964Y-75737142D01*
X130721964Y-76418095D01*
X131898154Y-75551428D02*
X131898154Y-76603809D01*
X131836250Y-76727619D01*
X131774345Y-76789523D01*
X131650535Y-76851428D01*
X131464821Y-76851428D01*
X131341011Y-76789523D01*
X131898154Y-76356190D02*
X131774345Y-76418095D01*
X131526726Y-76418095D01*
X131402916Y-76356190D01*
X131341011Y-76294285D01*
X131279107Y-76170476D01*
X131279107Y-75799047D01*
X131341011Y-75675238D01*
X131402916Y-75613333D01*
X131526726Y-75551428D01*
X131774345Y-75551428D01*
X131898154Y-75613333D01*
X133445773Y-76356190D02*
X133631488Y-76418095D01*
X133941011Y-76418095D01*
X134064821Y-76356190D01*
X134126726Y-76294285D01*
X134188630Y-76170476D01*
X134188630Y-76046666D01*
X134126726Y-75922857D01*
X134064821Y-75860952D01*
X133941011Y-75799047D01*
X133693392Y-75737142D01*
X133569583Y-75675238D01*
X133507678Y-75613333D01*
X133445773Y-75489523D01*
X133445773Y-75365714D01*
X133507678Y-75241904D01*
X133569583Y-75180000D01*
X133693392Y-75118095D01*
X134002916Y-75118095D01*
X134188630Y-75180000D01*
X135241011Y-76356190D02*
X135117202Y-76418095D01*
X134869583Y-76418095D01*
X134745773Y-76356190D01*
X134683869Y-76232380D01*
X134683869Y-75737142D01*
X134745773Y-75613333D01*
X134869583Y-75551428D01*
X135117202Y-75551428D01*
X135241011Y-75613333D01*
X135302916Y-75737142D01*
X135302916Y-75860952D01*
X134683869Y-75984761D01*
X136417202Y-76418095D02*
X136417202Y-75737142D01*
X136355297Y-75613333D01*
X136231488Y-75551428D01*
X135983869Y-75551428D01*
X135860059Y-75613333D01*
X136417202Y-76356190D02*
X136293392Y-76418095D01*
X135983869Y-76418095D01*
X135860059Y-76356190D01*
X135798154Y-76232380D01*
X135798154Y-76108571D01*
X135860059Y-75984761D01*
X135983869Y-75922857D01*
X136293392Y-75922857D01*
X136417202Y-75860952D01*
X136850535Y-75551428D02*
X137345773Y-75551428D01*
X137036250Y-75118095D02*
X137036250Y-76232380D01*
X137098154Y-76356190D01*
X137221964Y-76418095D01*
X137345773Y-76418095D01*
X139141011Y-76913333D02*
X139079107Y-76851428D01*
X138955297Y-76665714D01*
X138893392Y-76541904D01*
X138831488Y-76356190D01*
X138769583Y-76046666D01*
X138769583Y-75799047D01*
X138831488Y-75489523D01*
X138893392Y-75303809D01*
X138955297Y-75180000D01*
X139079107Y-74994285D01*
X139141011Y-74932380D01*
X139574345Y-75241904D02*
X139636250Y-75180000D01*
X139760059Y-75118095D01*
X140069583Y-75118095D01*
X140193392Y-75180000D01*
X140255297Y-75241904D01*
X140317202Y-75365714D01*
X140317202Y-75489523D01*
X140255297Y-75675238D01*
X139512440Y-76418095D01*
X140317202Y-76418095D01*
X140750535Y-76418095D02*
X141431488Y-75551428D01*
X140750535Y-75551428D02*
X141431488Y-76418095D01*
X141802916Y-75118095D02*
X142669583Y-75118095D01*
X142112440Y-76418095D01*
X144155297Y-75551428D02*
X144155297Y-76851428D01*
X144155297Y-75613333D02*
X144279107Y-75551428D01*
X144526726Y-75551428D01*
X144650535Y-75613333D01*
X144712440Y-75675238D01*
X144774345Y-75799047D01*
X144774345Y-76170476D01*
X144712440Y-76294285D01*
X144650535Y-76356190D01*
X144526726Y-76418095D01*
X144279107Y-76418095D01*
X144155297Y-76356190D01*
X145331488Y-76418095D02*
X145331488Y-75551428D01*
X145331488Y-75118095D02*
X145269583Y-75180000D01*
X145331488Y-75241904D01*
X145393392Y-75180000D01*
X145331488Y-75118095D01*
X145331488Y-75241904D01*
X145950535Y-75551428D02*
X145950535Y-76418095D01*
X145950535Y-75675238D02*
X146012440Y-75613333D01*
X146136250Y-75551428D01*
X146321964Y-75551428D01*
X146445773Y-75613333D01*
X146507678Y-75737142D01*
X146507678Y-76418095D01*
X147002916Y-76913333D02*
X147064821Y-76851428D01*
X147188630Y-76665714D01*
X147250535Y-76541904D01*
X147312440Y-76356190D01*
X147374345Y-76046666D01*
X147374345Y-75799047D01*
X147312440Y-75489523D01*
X147250535Y-75303809D01*
X147188630Y-75180000D01*
X147064821Y-74994285D01*
X147002916Y-74932380D01*
X125088630Y-78693095D02*
X124655297Y-78074047D01*
X124345773Y-78693095D02*
X124345773Y-77393095D01*
X124841011Y-77393095D01*
X124964821Y-77455000D01*
X125026726Y-77516904D01*
X125088630Y-77640714D01*
X125088630Y-77826428D01*
X125026726Y-77950238D01*
X124964821Y-78012142D01*
X124841011Y-78074047D01*
X124345773Y-78074047D01*
X126141011Y-78631190D02*
X126017202Y-78693095D01*
X125769583Y-78693095D01*
X125645773Y-78631190D01*
X125583869Y-78507380D01*
X125583869Y-78012142D01*
X125645773Y-77888333D01*
X125769583Y-77826428D01*
X126017202Y-77826428D01*
X126141011Y-77888333D01*
X126202916Y-78012142D01*
X126202916Y-78135952D01*
X125583869Y-78259761D01*
X126636250Y-77826428D02*
X126945773Y-78693095D01*
X127255297Y-77826428D01*
X127750535Y-78569285D02*
X127812440Y-78631190D01*
X127750535Y-78693095D01*
X127688630Y-78631190D01*
X127750535Y-78569285D01*
X127750535Y-78693095D01*
X129050535Y-78693095D02*
X128307678Y-78693095D01*
X128679107Y-78693095D02*
X128679107Y-77393095D01*
X128555297Y-77578809D01*
X128431488Y-77702619D01*
X128307678Y-77764523D01*
X124345773Y-80968095D02*
X124345773Y-79668095D01*
X124902916Y-80968095D02*
X124902916Y-80287142D01*
X124841011Y-80163333D01*
X124717202Y-80101428D01*
X124531488Y-80101428D01*
X124407678Y-80163333D01*
X124345773Y-80225238D01*
X125336250Y-80101428D02*
X125831488Y-80101428D01*
X125521964Y-79668095D02*
X125521964Y-80782380D01*
X125583869Y-80906190D01*
X125707678Y-80968095D01*
X125831488Y-80968095D01*
X126079107Y-80101428D02*
X126574345Y-80101428D01*
X126264821Y-79668095D02*
X126264821Y-80782380D01*
X126326726Y-80906190D01*
X126450535Y-80968095D01*
X126574345Y-80968095D01*
X127007678Y-80101428D02*
X127007678Y-81401428D01*
X127007678Y-80163333D02*
X127131488Y-80101428D01*
X127379107Y-80101428D01*
X127502916Y-80163333D01*
X127564821Y-80225238D01*
X127626726Y-80349047D01*
X127626726Y-80720476D01*
X127564821Y-80844285D01*
X127502916Y-80906190D01*
X127379107Y-80968095D01*
X127131488Y-80968095D01*
X127007678Y-80906190D01*
X128183869Y-80844285D02*
X128245773Y-80906190D01*
X128183869Y-80968095D01*
X128121964Y-80906190D01*
X128183869Y-80844285D01*
X128183869Y-80968095D01*
X128183869Y-80163333D02*
X128245773Y-80225238D01*
X128183869Y-80287142D01*
X128121964Y-80225238D01*
X128183869Y-80163333D01*
X128183869Y-80287142D01*
X129731488Y-79606190D02*
X128617202Y-81277619D01*
X131093392Y-79606190D02*
X129979107Y-81277619D01*
X131402916Y-80101428D02*
X131650535Y-80968095D01*
X131898154Y-80349047D01*
X132145773Y-80968095D01*
X132393392Y-80101428D01*
X132764821Y-80101428D02*
X133012440Y-80968095D01*
X133260059Y-80349047D01*
X133507678Y-80968095D01*
X133755297Y-80101428D01*
X134126726Y-80101428D02*
X134374345Y-80968095D01*
X134621964Y-80349047D01*
X134869583Y-80968095D01*
X135117202Y-80101428D01*
X135612440Y-80844285D02*
X135674345Y-80906190D01*
X135612440Y-80968095D01*
X135550535Y-80906190D01*
X135612440Y-80844285D01*
X135612440Y-80968095D01*
X136231488Y-80968095D02*
X136231488Y-80101428D01*
X136231488Y-80349047D02*
X136293392Y-80225238D01*
X136355297Y-80163333D01*
X136479107Y-80101428D01*
X136602916Y-80101428D01*
X137531488Y-80906190D02*
X137407678Y-80968095D01*
X137160059Y-80968095D01*
X137036250Y-80906190D01*
X136974345Y-80782380D01*
X136974345Y-80287142D01*
X137036250Y-80163333D01*
X137160059Y-80101428D01*
X137407678Y-80101428D01*
X137531488Y-80163333D01*
X137593392Y-80287142D01*
X137593392Y-80410952D01*
X136974345Y-80534761D01*
X138150535Y-80968095D02*
X138150535Y-80101428D01*
X138150535Y-80225238D02*
X138212440Y-80163333D01*
X138336250Y-80101428D01*
X138521964Y-80101428D01*
X138645773Y-80163333D01*
X138707678Y-80287142D01*
X138707678Y-80968095D01*
X138707678Y-80287142D02*
X138769583Y-80163333D01*
X138893392Y-80101428D01*
X139079107Y-80101428D01*
X139202916Y-80163333D01*
X139264821Y-80287142D01*
X139264821Y-80968095D01*
X139760059Y-80101428D02*
X140069583Y-80968095D01*
X140379107Y-80101428D02*
X140069583Y-80968095D01*
X139945773Y-81277619D01*
X139883869Y-81339523D01*
X139760059Y-81401428D01*
X140874345Y-80844285D02*
X140936250Y-80906190D01*
X140874345Y-80968095D01*
X140812440Y-80906190D01*
X140874345Y-80844285D01*
X140874345Y-80968095D01*
X141679107Y-80968095D02*
X141555297Y-80906190D01*
X141493392Y-80844285D01*
X141431488Y-80720476D01*
X141431488Y-80349047D01*
X141493392Y-80225238D01*
X141555297Y-80163333D01*
X141679107Y-80101428D01*
X141864821Y-80101428D01*
X141988630Y-80163333D01*
X142050535Y-80225238D01*
X142112440Y-80349047D01*
X142112440Y-80720476D01*
X142050535Y-80844285D01*
X141988630Y-80906190D01*
X141864821Y-80968095D01*
X141679107Y-80968095D01*
X142669583Y-80968095D02*
X142669583Y-80101428D01*
X142669583Y-80349047D02*
X142731488Y-80225238D01*
X142793392Y-80163333D01*
X142917202Y-80101428D01*
X143041011Y-80101428D01*
X144031488Y-80101428D02*
X144031488Y-81153809D01*
X143969583Y-81277619D01*
X143907678Y-81339523D01*
X143783869Y-81401428D01*
X143598154Y-81401428D01*
X143474345Y-81339523D01*
X144031488Y-80906190D02*
X143907678Y-80968095D01*
X143660059Y-80968095D01*
X143536250Y-80906190D01*
X143474345Y-80844285D01*
X143412440Y-80720476D01*
X143412440Y-80349047D01*
X143474345Y-80225238D01*
X143536250Y-80163333D01*
X143660059Y-80101428D01*
X143907678Y-80101428D01*
X144031488Y-80163333D01*
X144650535Y-80844285D02*
X144712440Y-80906190D01*
X144650535Y-80968095D01*
X144588630Y-80906190D01*
X144650535Y-80844285D01*
X144650535Y-80968095D01*
X145826726Y-80101428D02*
X145826726Y-80968095D01*
X145269583Y-80101428D02*
X145269583Y-80782380D01*
X145331488Y-80906190D01*
X145455297Y-80968095D01*
X145641011Y-80968095D01*
X145764821Y-80906190D01*
X145826726Y-80844285D01*
X146445773Y-80968095D02*
X146445773Y-79668095D01*
X146569583Y-80472857D02*
X146941011Y-80968095D01*
X146941011Y-80101428D02*
X146445773Y-80596666D01*
D10*
X137080952Y-55062380D02*
X136747619Y-54586190D01*
X136509523Y-55062380D02*
X136509523Y-54062380D01*
X136890476Y-54062380D01*
X136985714Y-54110000D01*
X137033333Y-54157619D01*
X137080952Y-54252857D01*
X137080952Y-54395714D01*
X137033333Y-54490952D01*
X136985714Y-54538571D01*
X136890476Y-54586190D01*
X136509523Y-54586190D01*
X138080952Y-54967142D02*
X138033333Y-55014761D01*
X137890476Y-55062380D01*
X137795238Y-55062380D01*
X137652380Y-55014761D01*
X137557142Y-54919523D01*
X137509523Y-54824285D01*
X137461904Y-54633809D01*
X137461904Y-54490952D01*
X137509523Y-54300476D01*
X137557142Y-54205238D01*
X137652380Y-54110000D01*
X137795238Y-54062380D01*
X137890476Y-54062380D01*
X138033333Y-54110000D01*
X138080952Y-54157619D01*
X138700000Y-54062380D02*
X138795238Y-54062380D01*
X138890476Y-54110000D01*
X138938095Y-54157619D01*
X138985714Y-54252857D01*
X139033333Y-54443333D01*
X139033333Y-54681428D01*
X138985714Y-54871904D01*
X138938095Y-54967142D01*
X138890476Y-55014761D01*
X138795238Y-55062380D01*
X138700000Y-55062380D01*
X138604761Y-55014761D01*
X138557142Y-54967142D01*
X138509523Y-54871904D01*
X138461904Y-54681428D01*
X138461904Y-54443333D01*
X138509523Y-54252857D01*
X138557142Y-54157619D01*
X138604761Y-54110000D01*
X138700000Y-54062380D01*
X139461904Y-54967142D02*
X139509523Y-55014761D01*
X139461904Y-55062380D01*
X139414285Y-55014761D01*
X139461904Y-54967142D01*
X139461904Y-55062380D01*
X139938095Y-54967142D02*
X139985714Y-55014761D01*
X139938095Y-55062380D01*
X139890476Y-55014761D01*
X139938095Y-54967142D01*
X139938095Y-55062380D01*
X140985714Y-55062380D02*
X140652380Y-54586190D01*
X140414285Y-55062380D02*
X140414285Y-54062380D01*
X140795238Y-54062380D01*
X140890476Y-54110000D01*
X140938095Y-54157619D01*
X140985714Y-54252857D01*
X140985714Y-54395714D01*
X140938095Y-54490952D01*
X140890476Y-54538571D01*
X140795238Y-54586190D01*
X140414285Y-54586190D01*
X141985714Y-54967142D02*
X141938095Y-55014761D01*
X141795238Y-55062380D01*
X141700000Y-55062380D01*
X141557142Y-55014761D01*
X141461904Y-54919523D01*
X141414285Y-54824285D01*
X141366666Y-54633809D01*
X141366666Y-54490952D01*
X141414285Y-54300476D01*
X141461904Y-54205238D01*
X141557142Y-54110000D01*
X141700000Y-54062380D01*
X141795238Y-54062380D01*
X141938095Y-54110000D01*
X141985714Y-54157619D01*
X142890476Y-54062380D02*
X142414285Y-54062380D01*
X142366666Y-54538571D01*
X142414285Y-54490952D01*
X142509523Y-54443333D01*
X142747619Y-54443333D01*
X142842857Y-54490952D01*
X142890476Y-54538571D01*
X142938095Y-54633809D01*
X142938095Y-54871904D01*
X142890476Y-54967142D01*
X142842857Y-55014761D01*
X142747619Y-55062380D01*
X142509523Y-55062380D01*
X142414285Y-55014761D01*
X142366666Y-54967142D01*
D13*
X112550000Y-68210000D02*
X109950000Y-68210000D01*
X112550000Y-53510000D02*
X112550000Y-68210000D01*
X103350000Y-68210000D02*
X103350000Y-66310000D01*
X106050000Y-68210000D02*
X103350000Y-68210000D01*
X103350000Y-53510000D02*
X112550000Y-53510000D01*
X103350000Y-62310000D02*
X103350000Y-53510000D01*
X112750000Y-67360000D02*
X112750000Y-68410000D01*
X111700000Y-68410000D02*
X112750000Y-68410000D01*
X96460000Y-65980000D02*
X97790000Y-65980000D01*
X96460000Y-67310000D02*
X96460000Y-65980000D01*
X96460000Y-68580000D02*
X99120000Y-68580000D01*
X99120000Y-68580000D02*
X99120000Y-81340000D01*
X96460000Y-68580000D02*
X96460000Y-81340000D01*
X96460000Y-81340000D02*
X99120000Y-81340000D01*
X114875000Y-55245000D02*
X114875000Y-53915000D01*
X114875000Y-53915000D02*
X116205000Y-53915000D01*
X117475000Y-53915000D02*
X135315000Y-53915000D01*
X135315000Y-56575000D02*
X135315000Y-53915000D01*
X117475000Y-56575000D02*
X135315000Y-56575000D01*
X117475000Y-56575000D02*
X117475000Y-53915000D01*
X111360000Y-72735000D02*
X111360000Y-78745000D01*
X104540000Y-74985000D02*
X104540000Y-78745000D01*
X111360000Y-78745000D02*
X110100000Y-78745000D01*
X104540000Y-78745000D02*
X105800000Y-78745000D01*
X135890000Y-57280000D02*
X138430000Y-57280000D01*
X147820000Y-60580000D02*
X145560000Y-60580000D01*
X147820000Y-58340000D02*
X145960000Y-58340000D01*
X147820000Y-73740000D02*
X147820000Y-58340000D01*
X114620000Y-73740000D02*
X147820000Y-73740000D01*
X114620000Y-58340000D02*
X114620000Y-73740000D01*
X141060000Y-58340000D02*
X114620000Y-58340000D01*
X144410000Y-59030000D02*
G75*
G03*
X144410000Y-59030000I-900000J0D01*
G01*
X146060000Y-59030000D02*
G75*
G03*
X146060000Y-59030000I-2550000J0D01*
G01*
D10*
X97456666Y-64432380D02*
X97456666Y-65146666D01*
X97409047Y-65289523D01*
X97313809Y-65384761D01*
X97170952Y-65432380D01*
X97075714Y-65432380D01*
X97885238Y-64527619D02*
X97932857Y-64480000D01*
X98028095Y-64432380D01*
X98266190Y-64432380D01*
X98361428Y-64480000D01*
X98409047Y-64527619D01*
X98456666Y-64622857D01*
X98456666Y-64718095D01*
X98409047Y-64860952D01*
X97837619Y-65432380D01*
X98456666Y-65432380D01*
M02*
