G04 #@! TF.GenerationSoftware,KiCad,Pcbnew,5.1.12*
G04 #@! TF.CreationDate,2023-08-12T15:40:54+01:00*
G04 #@! TF.ProjectId,programmingseat,70726f67-7261-46d6-9d69-6e6773656174,rev?*
G04 #@! TF.SameCoordinates,Original*
G04 #@! TF.FileFunction,Copper,L2,Bot*
G04 #@! TF.FilePolarity,Positive*
%FSLAX46Y46*%
G04 Gerber Fmt 4.6, Leading zero omitted, Abs format (unit mm)*
G04 Created by KiCad (PCBNEW 5.1.12) date 2023-08-12 15:40:54*
%MOMM*%
%LPD*%
G01*
G04 APERTURE LIST*
G04 #@! TA.AperFunction,ComponentPad*
%ADD10R,3.500000X3.500000*%
G04 #@! TD*
G04 #@! TA.AperFunction,ComponentPad*
%ADD11O,1.700000X1.700000*%
G04 #@! TD*
G04 #@! TA.AperFunction,ComponentPad*
%ADD12R,1.700000X1.700000*%
G04 #@! TD*
G04 #@! TA.AperFunction,ComponentPad*
%ADD13R,1.440000X2.000000*%
G04 #@! TD*
G04 #@! TA.AperFunction,ComponentPad*
%ADD14O,1.440000X2.000000*%
G04 #@! TD*
G04 #@! TA.AperFunction,ViaPad*
%ADD15C,0.800000*%
G04 #@! TD*
G04 #@! TA.AperFunction,Conductor*
%ADD16C,0.250000*%
G04 #@! TD*
G04 #@! TA.AperFunction,Conductor*
%ADD17C,0.500000*%
G04 #@! TD*
G04 APERTURE END LIST*
D10*
X107950000Y-67310000D03*
G04 #@! TA.AperFunction,ComponentPad*
G36*
G01*
X106950000Y-59810000D02*
X108950000Y-59810000D01*
G75*
G02*
X109700000Y-60560000I0J-750000D01*
G01*
X109700000Y-62060000D01*
G75*
G02*
X108950000Y-62810000I-750000J0D01*
G01*
X106950000Y-62810000D01*
G75*
G02*
X106200000Y-62060000I0J750000D01*
G01*
X106200000Y-60560000D01*
G75*
G02*
X106950000Y-59810000I750000J0D01*
G01*
G37*
G04 #@! TD.AperFunction*
G04 #@! TA.AperFunction,ComponentPad*
G36*
G01*
X102375000Y-62560000D02*
X104125000Y-62560000D01*
G75*
G02*
X105000000Y-63435000I0J-875000D01*
G01*
X105000000Y-65185000D01*
G75*
G02*
X104125000Y-66060000I-875000J0D01*
G01*
X102375000Y-66060000D01*
G75*
G02*
X101500000Y-65185000I0J875000D01*
G01*
X101500000Y-63435000D01*
G75*
G02*
X102375000Y-62560000I875000J0D01*
G01*
G37*
G04 #@! TD.AperFunction*
D11*
X97790000Y-80010000D03*
X97790000Y-77470000D03*
X97790000Y-74930000D03*
X97790000Y-72390000D03*
X97790000Y-69850000D03*
D12*
X97790000Y-67310000D03*
X116205000Y-55245000D03*
D11*
X118745000Y-55245000D03*
X121285000Y-55245000D03*
X123825000Y-55245000D03*
X126365000Y-55245000D03*
X128905000Y-55245000D03*
X131445000Y-55245000D03*
X133985000Y-55245000D03*
D13*
X137160000Y-62230000D03*
D14*
X137160000Y-69850000D03*
X134620000Y-62230000D03*
X134620000Y-69850000D03*
X132080000Y-62230000D03*
X132080000Y-69850000D03*
X129540000Y-62230000D03*
X129540000Y-69850000D03*
X127000000Y-62230000D03*
X127000000Y-69850000D03*
X124460000Y-62230000D03*
X124460000Y-69850000D03*
X121920000Y-62230000D03*
X121920000Y-69850000D03*
D15*
X107950000Y-73685000D03*
X107950000Y-79985000D03*
X105650000Y-73685000D03*
D16*
X133985000Y-55245000D02*
X131445000Y-57785000D01*
X131445000Y-57785000D02*
X137160000Y-57785000D01*
X137160000Y-57785000D02*
X139065000Y-59690000D01*
X139065000Y-67945000D02*
X137160000Y-69850000D01*
X139065000Y-59690000D02*
X139065000Y-67945000D01*
X110205000Y-57785000D02*
X106680000Y-61310000D01*
X116840000Y-57785000D02*
X110205000Y-57785000D01*
X131445000Y-57785000D02*
X116840000Y-57785000D01*
X116840000Y-57785000D02*
X116459998Y-57785000D01*
D17*
X107950000Y-73685000D02*
X107950000Y-79985000D01*
D16*
X97790000Y-67310000D02*
X98425000Y-67310000D01*
X98425000Y-67310000D02*
X102235000Y-71120000D01*
X102235000Y-71120000D02*
X116205000Y-71120000D01*
X116205000Y-71120000D02*
X121920000Y-65405000D01*
X121920000Y-65405000D02*
X126365000Y-65405000D01*
X126365000Y-65405000D02*
X129540000Y-62230000D01*
X105625000Y-73660000D02*
X105650000Y-73685000D01*
X105650000Y-73685000D02*
X105650000Y-73420000D01*
X101625000Y-73685000D02*
X97790000Y-69850000D01*
X105650000Y-73685000D02*
X101625000Y-73685000D01*
M02*
