(module MicroMaTch-THT-6 (layer F.Cu) (tedit 5E90F900)
  (descr "MicroMaTch THT 6-pin")
  (attr smd)
  (fp_text reference REF** (at 0 -3.02) (layer F.SilkS)
    (effects (font (size 1 1) (thickness 0.15)))
  )
  (fp_text value MicroMaTch-THT-6 (at 0 3.02) (layer F.Fab)
    (effects (font (size 1 1) (thickness 0.15)))
  )
  (fp_line (start -4.27 -2.5) (end -4.77 -2.5) (layer F.SilkS) (width 0.12))
  (fp_line (start -4.77 -2.5) (end -4.77 2.5) (layer F.SilkS) (width 0.12))
  (fp_line (start -4.77 2.5) (end -3 2.5) (layer F.SilkS) (width 0.12))
  (fp_line (start 3 -2.5) (end 4.77 -2.5) (layer F.SilkS) (width 0.12))
  (fp_line (start 4.77 -2.5) (end 4.77 -1.25) (layer F.SilkS) (width 0.12))
  (fp_line (start 4.77 -1.25) (end 4.07 -1.25) (layer F.SilkS) (width 0.12))
  (fp_line (start 4.07 -1.25) (end 4.07 1.25) (layer F.SilkS) (width 0.12))
  (fp_line (start 4.07 1.25) (end 4.77 1.25) (layer F.SilkS) (width 0.12))
  (fp_line (start 4.77 1.25) (end 4.77 2.5) (layer F.SilkS) (width 0.12))
  (fp_line (start 4.77 2.5) (end 4.27 2.5) (layer F.SilkS) (width 0.12))
  (fp_line (start -5.02 -2.02) (end 5.02 -2.02) (layer F.CrtYd) (width 0.05))
  (fp_line (start 5.02 -2.02) (end 5.02 2.02) (layer F.CrtYd) (width 0.05))
  (fp_line (start 5.02 2.02) (end -5.02 2.02) (layer F.CrtYd) (width 0.05))
  (fp_line (start -5.02 2.02) (end -5.02 -2.02) (layer F.CrtYd) (width 0.05))
  (pad 2 thru_hole circle (at -1.905 -1.27) (size 1.5 1.5) (drill 0.9) (layers *.Cu *.Mask))
  (pad 1 thru_hole rect (at -3.175 1.27) (size 1.5 1.5) (drill 0.9) (layers *.Cu *.Mask))
  (pad 4 thru_hole circle (at 0.635 -1.27) (size 1.5 1.5) (drill 0.9) (layers *.Cu *.Mask))
  (pad 3 thru_hole circle (at -0.635 1.27) (size 1.5 1.5) (drill 0.9) (layers *.Cu *.Mask))
  (pad 6 thru_hole circle (at 3.175 -1.27) (size 1.5 1.5) (drill 0.9) (layers *.Cu *.Mask))
  (pad 5 thru_hole circle (at 1.905 1.27) (size 1.5 1.5) (drill 0.9) (layers *.Cu *.Mask))
)
