(export (version D)
  (design
    (tool "Eeschema 5.1.12")
    (sheet (number 1) (name /) (tstamps /)
      (title_block
        (title "Myraa 74095 breakout")
        (company "Remy Horton")
        (rev Rev.1)
        (date "18 May 2023")
        (source 74095.sch)
        (comment (number 1) (value ""))
        (comment (number 2) (value ""))
        (comment (number 3) (value ""))
        (comment (number 4) (value "")))))
  (components
    (comp (ref J8)
      (value Conn_01x05_Female)
      (footprint Connector_PinHeader_2.54mm:PinHeader_1x05_P2.54mm_Vertical)
      (datasheet ~)
      (libsource (lib Connector) (part Conn_01x05_Female) (description "Generic connector, single row, 01x05, script generated (kicad-library-utils/schlib/autogen/connector/)"))
      (sheetpath (names /) (tstamps /))
      (tstamp 64673906))
    (comp (ref J5)
      (value Conn_01x05_Female)
      (footprint Connector_PinHeader_2.54mm:PinHeader_1x05_P2.54mm_Vertical)
      (datasheet ~)
      (libsource (lib Connector) (part Conn_01x05_Female) (description "Generic connector, single row, 01x05, script generated (kicad-library-utils/schlib/autogen/connector/)"))
      (sheetpath (names /) (tstamps /))
      (tstamp 64674258))
    (comp (ref J2)
      (value Conn_01x01_Female)
      (footprint Connector_PinHeader_2.54mm:PinHeader_1x01_P2.54mm_Vertical)
      (datasheet ~)
      (libsource (lib Connector) (part Conn_01x01_Female) (description "Generic connector, single row, 01x01, script generated (kicad-library-utils/schlib/autogen/connector/)"))
      (sheetpath (names /) (tstamps /))
      (tstamp 64675587))
    (comp (ref J1)
      (value Conn_01x01_Female)
      (footprint Connector_PinHeader_2.54mm:PinHeader_1x01_P2.54mm_Vertical)
      (datasheet ~)
      (libsource (lib Connector) (part Conn_01x01_Female) (description "Generic connector, single row, 01x01, script generated (kicad-library-utils/schlib/autogen/connector/)"))
      (sheetpath (names /) (tstamps /))
      (tstamp 64675C57))
    (comp (ref J4)
      (value Conn_01x01_Female)
      (footprint Connector_PinHeader_2.54mm:PinHeader_1x01_P2.54mm_Vertical)
      (datasheet ~)
      (libsource (lib Connector) (part Conn_01x01_Female) (description "Generic connector, single row, 01x01, script generated (kicad-library-utils/schlib/autogen/connector/)"))
      (sheetpath (names /) (tstamps /))
      (tstamp 64676423))
    (comp (ref J6)
      (value Conn_01x01_Female)
      (footprint Connector_PinHeader_2.54mm:PinHeader_1x01_P2.54mm_Vertical)
      (datasheet ~)
      (libsource (lib Connector) (part Conn_01x01_Female) (description "Generic connector, single row, 01x01, script generated (kicad-library-utils/schlib/autogen/connector/)"))
      (sheetpath (names /) (tstamps /))
      (tstamp 646766B7))
    (comp (ref J9)
      (value Conn_01x01_Female)
      (footprint Connector_PinHeader_2.54mm:PinHeader_1x01_P2.54mm_Vertical)
      (datasheet ~)
      (libsource (lib Connector) (part Conn_01x01_Female) (description "Generic connector, single row, 01x01, script generated (kicad-library-utils/schlib/autogen/connector/)"))
      (sheetpath (names /) (tstamps /))
      (tstamp 64676E1F))
    (comp (ref J3)
      (value Conn_01x01_Female)
      (footprint Connector_PinHeader_2.54mm:PinHeader_1x01_P2.54mm_Vertical)
      (datasheet ~)
      (libsource (lib Connector) (part Conn_01x01_Female) (description "Generic connector, single row, 01x01, script generated (kicad-library-utils/schlib/autogen/connector/)"))
      (sheetpath (names /) (tstamps /))
      (tstamp 64677194))
    (comp (ref J7)
      (value Conn_01x01_Female)
      (footprint Connector_PinHeader_2.54mm:PinHeader_1x01_P2.54mm_Vertical)
      (datasheet ~)
      (libsource (lib Connector) (part Conn_01x01_Female) (description "Generic connector, single row, 01x01, script generated (kicad-library-utils/schlib/autogen/connector/)"))
      (sheetpath (names /) (tstamps /))
      (tstamp 646773CF))
    (comp (ref J10)
      (value Conn_01x01_Female)
      (footprint Connector_PinHeader_2.54mm:PinHeader_1x01_P2.54mm_Vertical)
      (datasheet ~)
      (libsource (lib Connector) (part Conn_01x01_Female) (description "Generic connector, single row, 01x01, script generated (kicad-library-utils/schlib/autogen/connector/)"))
      (sheetpath (names /) (tstamps /))
      (tstamp 646776A2))
    (comp (ref J11)
      (value Conn_01x01_Female)
      (footprint Connector_PinHeader_2.54mm:PinHeader_1x01_P2.54mm_Vertical)
      (datasheet ~)
      (libsource (lib Connector) (part Conn_01x01_Female) (description "Generic connector, single row, 01x01, script generated (kicad-library-utils/schlib/autogen/connector/)"))
      (sheetpath (names /) (tstamps /))
      (tstamp 64677945)))
  (libparts
    (libpart (lib Connector) (part Conn_01x01_Female)
      (description "Generic connector, single row, 01x01, script generated (kicad-library-utils/schlib/autogen/connector/)")
      (docs ~)
      (footprints
        (fp Connector*:*))
      (fields
        (field (name Reference) J)
        (field (name Value) Conn_01x01_Female))
      (pins
        (pin (num 1) (name Pin_1) (type passive))))
    (libpart (lib Connector) (part Conn_01x05_Female)
      (description "Generic connector, single row, 01x05, script generated (kicad-library-utils/schlib/autogen/connector/)")
      (docs ~)
      (footprints
        (fp Connector*:*_1x??_*))
      (fields
        (field (name Reference) J)
        (field (name Value) Conn_01x05_Female))
      (pins
        (pin (num 1) (name Pin_1) (type passive))
        (pin (num 2) (name Pin_2) (type passive))
        (pin (num 3) (name Pin_3) (type passive))
        (pin (num 4) (name Pin_4) (type passive))
        (pin (num 5) (name Pin_5) (type passive)))))
  (libraries
    (library (logical Connector)
      (uri /opt/kicad-5.1.12/share/kicad/library/Connector.lib)))
  (nets
    (net (code 1) (name "Net-(J5-Pad3)")
      (node (ref J6) (pin 1))
      (node (ref J5) (pin 3)))
    (net (code 2) (name "Net-(J11-Pad1)")
      (node (ref J8) (pin 1))
      (node (ref J11) (pin 1)))
    (net (code 3) (name "Net-(J10-Pad1)")
      (node (ref J8) (pin 2))
      (node (ref J10) (pin 1)))
    (net (code 4) (name "Net-(J7-Pad1)")
      (node (ref J7) (pin 1))
      (node (ref J8) (pin 3)))
    (net (code 5) (name "Net-(J3-Pad1)")
      (node (ref J3) (pin 1))
      (node (ref J8) (pin 4)))
    (net (code 6) (name "Net-(J1-Pad1)")
      (node (ref J1) (pin 1))
      (node (ref J8) (pin 5)))
    (net (code 7) (name "Net-(J5-Pad5)")
      (node (ref J5) (pin 5)))
    (net (code 8) (name "Net-(J5-Pad4)")
      (node (ref J5) (pin 4))
      (node (ref J9) (pin 1)))
    (net (code 9) (name "Net-(J4-Pad1)")
      (node (ref J5) (pin 2))
      (node (ref J4) (pin 1)))
    (net (code 10) (name "Net-(J2-Pad1)")
      (node (ref J5) (pin 1))
      (node (ref J2) (pin 1)))))