G04 #@! TF.GenerationSoftware,KiCad,Pcbnew,5.1.12*
G04 #@! TF.CreationDate,2023-05-18T17:59:40+01:00*
G04 #@! TF.ProjectId,q4343,71343334-332e-46b6-9963-61645f706362,Rev.1*
G04 #@! TF.SameCoordinates,Original*
G04 #@! TF.FileFunction,Copper,L1,Top*
G04 #@! TF.FilePolarity,Positive*
%FSLAX46Y46*%
G04 Gerber Fmt 4.6, Leading zero omitted, Abs format (unit mm)*
G04 Created by KiCad (PCBNEW 5.1.12) date 2023-05-18 17:59:40*
%MOMM*%
%LPD*%
G01*
G04 APERTURE LIST*
G04 #@! TA.AperFunction,ComponentPad*
%ADD10O,1.700000X1.700000*%
G04 #@! TD*
G04 #@! TA.AperFunction,Conductor*
%ADD11C,0.250000*%
G04 #@! TD*
G04 APERTURE END LIST*
D10*
X115316000Y-81712000D03*
X112776000Y-81712000D03*
X110236000Y-81712000D03*
X107696000Y-81712000D03*
X105156000Y-81712000D03*
X101250000Y-100000000D03*
X120240000Y-86940000D03*
X105060000Y-99924000D03*
X115180000Y-86940000D03*
X105156000Y-104648000D03*
X107696000Y-104648000D03*
X110236000Y-104648000D03*
X112776000Y-104648000D03*
X115316000Y-104648000D03*
X110120000Y-99924000D03*
X110120000Y-86940000D03*
X115180000Y-99924000D03*
X105060000Y-86940000D03*
X120240000Y-99924000D03*
X100000000Y-86940000D03*
D11*
X101250000Y-100742000D02*
X105156000Y-104648000D01*
X101250000Y-100000000D02*
X101250000Y-100742000D01*
X120240000Y-86636000D02*
X120240000Y-86940000D01*
X115316000Y-81712000D02*
X120240000Y-86636000D01*
X107696000Y-102560000D02*
X105060000Y-99924000D01*
X107696000Y-104648000D02*
X107696000Y-102560000D01*
X112776000Y-84536000D02*
X115180000Y-86940000D01*
X112776000Y-81712000D02*
X112776000Y-84536000D01*
X110120000Y-104532000D02*
X110236000Y-104648000D01*
X110120000Y-99924000D02*
X110120000Y-104532000D01*
X115180000Y-99924000D02*
X114960000Y-99924000D01*
X112776000Y-102108000D02*
X112776000Y-104648000D01*
X114960000Y-99924000D02*
X112776000Y-102108000D01*
X120040000Y-99924000D02*
X120240000Y-99924000D01*
X115316000Y-104648000D02*
X120040000Y-99924000D01*
X110120000Y-81828000D02*
X110236000Y-81712000D01*
X110120000Y-86940000D02*
X110120000Y-81828000D01*
X100000000Y-86868000D02*
X105156000Y-81712000D01*
X100000000Y-86940000D02*
X100000000Y-86868000D01*
X105060000Y-86940000D02*
X105084000Y-86940000D01*
X107696000Y-84328000D02*
X107696000Y-81712000D01*
X105084000Y-86940000D02*
X107696000Y-84328000D01*
M02*
