EESchema Schematic File Version 4
EELAYER 30 0
EELAYER END
$Descr A4 11693 8268
encoding utf-8
Sheet 1 1
Title "AC Power Switch"
Date "10 August 2020"
Rev "Rev.1"
Comp "Remy Horton"
Comment1 ""
Comment2 ""
Comment3 ""
Comment4 ""
$EndDescr
$Comp
L Connector_Generic:Conn_01x03 J4
U 1 1 5F31853A
P 1550 1350
F 0 "J4" V 1514 1162 50  0000 R CNN
F 1 "Conn_01x03" V 1423 1162 50  0001 R CNN
F 2 "TerminalBlock_Phoenix:TerminalBlock_Phoenix_MKDS-1,5-3-5.08_1x03_P5.08mm_Horizontal" H 1550 1350 50  0001 C CNN
F 3 "~" H 1550 1350 50  0001 C CNN
	1    1550 1350
	0    -1   -1   0   
$EndComp
$Comp
L Device:D_Bridge_+-AA D1
U 1 1 5F31A80E
P 2450 2050
F 0 "D1" H 2794 2096 50  0000 L CNN
F 1 "D_Bridge_+-AA" H 2794 2005 50  0000 L CNN
F 2 "Diode_THT:Diode_Bridge_Round_D9.0mm" H 2450 2050 50  0001 C CNN
F 3 "~" H 2450 2050 50  0001 C CNN
	1    2450 2050
	1    0    0    -1  
$EndComp
$Comp
L Relay:EC2-5NU K2
U 1 1 5F31B366
P 4100 2100
F 0 "K2" H 3550 2250 50  0000 L CNN
F 1 "EC2-5NU" H 4700 1950 50  0000 L CNN
F 2 "Relay_THT:Relay_DPDT_Kemet_EC2" H 4100 2100 50  0001 C CNN
F 3 "https://content.kemet.com/datasheets/KEM_R7002_EC2_EE2.pdf" H 4100 2100 50  0001 C CNN
	1    4100 2100
	-1   0    0    1   
$EndComp
$Comp
L power-relay:G2RL-1A-E-HA K1
U 1 1 5F31E0F0
P 2950 1500
F 0 "K1" H 2600 1650 50  0000 L CNN
F 1 "G2RL-1A-E-HA" H 2100 1250 50  0000 L CNN
F 2 "power-switch:Relay_G2RL-1A-E-HA" H 3300 1450 50  0001 L CNN
F 3 "" H 2950 1500 50  0001 C CNN
	1    2950 1500
	-1   0    0    1   
$EndComp
$Comp
L power-relay:Transformer_Myraa_DS44268 T1
U 1 1 5F32337A
P 1600 2050
F 0 "T1" H 1600 2431 50  0000 C CNN
F 1 "Transformer_Myraa_DS44268" H 1600 2340 50  0000 C CNN
F 2 "power-switch:Transformer-Myrra-44268" H 1600 2050 50  0001 C CNN
F 3 "~" H 1600 2050 50  0001 C CNN
	1    1600 2050
	1    0    0    -1  
$EndComp
Wire Wire Line
	2000 1850 2350 1850
Wire Wire Line
	2350 1850 2350 1750
Wire Wire Line
	2350 1750 2450 1750
Wire Wire Line
	2000 2250 2350 2250
Wire Wire Line
	2350 2250 2350 2350
Wire Wire Line
	2350 2350 2450 2350
$Comp
L Device:C C1
U 1 1 5F327627
P 2450 2500
F 0 "C1" V 2500 2400 50  0000 C CNN
F 1 "C" V 2500 2600 50  0000 C CNN
F 2 "Capacitor_THT:CP_Radial_D13.0mm_P5.00mm" H 2488 2350 50  0001 C CNN
F 3 "~" H 2450 2500 50  0001 C CNN
	1    2450 2500
	0    -1   -1   0   
$EndComp
Wire Wire Line
	2150 2050 2150 2500
Wire Wire Line
	2150 2500 2300 2500
Wire Wire Line
	2750 2050 2750 2200
Wire Wire Line
	2750 2500 2650 2500
$Comp
L Regulator_Linear:LM2936-3.0 U1
U 1 1 5F32C2EF
P 3050 2500
F 0 "U1" H 3050 2742 50  0000 C CNN
F 1 "LM2936-3.0" H 3050 2651 50  0000 C CNN
F 2 "Package_TO_SOT_THT:TO-220-3_Vertical" H 3050 2725 50  0001 C CIN
F 3 "http://www.ti.com/lit/ds/symlink/lm2936.pdf" H 3050 2450 50  0001 C CNN
	1    3050 2500
	1    0    0    -1  
$EndComp
Connection ~ 2750 2500
Wire Wire Line
	3050 2800 2750 2800
Wire Wire Line
	2150 2800 2150 2500
Connection ~ 2150 2500
$Comp
L Connector_Generic:Conn_01x03 J1
U 1 1 5F32D678
P 1000 1350
F 0 "J1" V 964 1162 50  0000 R CNN
F 1 "Conn_01x03" V 1100 1550 50  0001 R CNN
F 2 "TerminalBlock_Phoenix:TerminalBlock_Phoenix_MKDS-1,5-3-5.08_1x03_P5.08mm_Horizontal" H 1000 1350 50  0001 C CNN
F 3 "~" H 1000 1350 50  0001 C CNN
	1    1000 1350
	0    -1   -1   0   
$EndComp
Wire Wire Line
	1100 1550 1100 1700
Wire Wire Line
	1100 1850 1200 1850
Wire Wire Line
	900  2250 1150 2250
Wire Wire Line
	1000 1550 1000 1600
Connection ~ 1100 1700
Wire Wire Line
	1100 1700 1100 1850
Wire Wire Line
	2550 1700 2550 1800
Wire Wire Line
	2550 1800 2750 1800
Wire Wire Line
	2850 1800 2750 1800
Connection ~ 2750 1800
Wire Wire Line
	2850 1200 2750 1200
$Comp
L power:GND #PWR02
U 1 1 5F33BC97
P 2750 2800
F 0 "#PWR02" H 2750 2550 50  0001 C CNN
F 1 "GND" H 2755 2627 50  0000 C CNN
F 2 "" H 2750 2800 50  0001 C CNN
F 3 "" H 2750 2800 50  0001 C CNN
	1    2750 2800
	1    0    0    -1  
$EndComp
Connection ~ 2750 2800
Wire Wire Line
	2750 2800 2450 2800
Wire Wire Line
	3150 1800 3700 1800
Wire Wire Line
	3150 1200 4100 1200
Wire Wire Line
	4100 1200 4100 1800
Wire Wire Line
	2750 2200 3450 2200
Wire Wire Line
	3450 2200 3450 2400
Wire Wire Line
	3450 2400 3600 2400
Connection ~ 2750 2200
Wire Wire Line
	2750 2200 2750 2350
Wire Wire Line
	4750 1800 4500 1800
$Comp
L power:+5V #PWR03
U 1 1 5F350930
P 3350 2500
F 0 "#PWR03" H 3350 2350 50  0001 C CNN
F 1 "+5V" H 3365 2673 50  0000 C CNN
F 2 "" H 3350 2500 50  0001 C CNN
F 3 "" H 3350 2500 50  0001 C CNN
	1    3350 2500
	1    0    0    -1  
$EndComp
$Comp
L power:+5V #PWR01
U 1 1 5F35525A
P 1800 2700
F 0 "#PWR01" H 1800 2550 50  0001 C CNN
F 1 "+5V" V 1815 2828 50  0000 L CNN
F 2 "" H 1800 2700 50  0001 C CNN
F 3 "" H 1800 2700 50  0001 C CNN
	1    1800 2700
	0    1    1    0   
$EndComp
Text Label 1800 2600 0    50   ~ 0
Signal
$Comp
L Transistor_BJT:BC556 Q1
U 1 1 5F3483C6
P 3650 2800
F 0 "Q1" H 3841 2754 50  0000 L CNN
F 1 "BC556" H 3841 2845 50  0000 L CNN
F 2 "Package_TO_SOT_THT:TO-92_Inline_Wide" H 3850 2725 50  0001 L CIN
F 3 "http://www.fairchildsemi.com/ds/BC/BC557.pdf" H 3650 2800 50  0001 L CNN
	1    3650 2800
	-1   0    0    1   
$EndComp
$Comp
L Device:R R2
U 1 1 5F36B49E
P 4000 2700
F 0 "R2" V 3793 2700 50  0000 C CNN
F 1 "R" V 3884 2700 50  0000 C CNN
F 2 "Resistor_THT:R_Axial_DIN0207_L6.3mm_D2.5mm_P7.62mm_Horizontal" V 3930 2700 50  0001 C CNN
F 3 "~" H 4000 2700 50  0001 C CNN
	1    4000 2700
	0    1    1    0   
$EndComp
Text Label 4150 2700 0    50   ~ 0
Signal
$Comp
L Device:R R1
U 1 1 5F36BFFC
P 3700 2600
F 0 "R1" V 3493 2600 50  0000 C CNN
F 1 "R" V 3584 2600 50  0000 C CNN
F 2 "Resistor_THT:R_Axial_DIN0207_L6.3mm_D2.5mm_P7.62mm_Horizontal" V 3630 2600 50  0001 C CNN
F 3 "~" H 3700 2600 50  0001 C CNN
	1    3700 2600
	0    1    1    0   
$EndComp
Wire Wire Line
	3850 2800 3850 2700
Wire Wire Line
	3350 2500 3550 2500
Wire Wire Line
	3550 2500 3550 2600
Connection ~ 3350 2500
Connection ~ 3550 2600
Wire Wire Line
	3550 3000 4500 3000
Wire Wire Line
	4500 3000 4500 2400
Wire Wire Line
	4000 2400 4000 2450
Wire Wire Line
	4000 2450 4750 2450
Wire Wire Line
	4750 2450 4750 1800
$Comp
L power:GND #PWR04
U 1 1 5F3720ED
P 4750 2450
F 0 "#PWR04" H 4750 2200 50  0001 C CNN
F 1 "GND" H 4755 2277 50  0000 C CNN
F 2 "" H 4750 2450 50  0001 C CNN
F 3 "" H 4750 2450 50  0001 C CNN
	1    4750 2450
	1    0    0    -1  
$EndComp
Connection ~ 4750 2450
Connection ~ 3850 2700
Wire Wire Line
	3850 2700 3850 2600
$Comp
L power:PWR_FLAG #FLG0101
U 1 1 5F372DF5
P 1150 2250
F 0 "#FLG0101" H 1150 2325 50  0001 C CNN
F 1 "PWR_FLAG" H 1150 2423 50  0000 C CNN
F 2 "" H 1150 2250 50  0001 C CNN
F 3 "~" H 1150 2250 50  0001 C CNN
	1    1150 2250
	1    0    0    -1  
$EndComp
Connection ~ 1150 2250
Wire Wire Line
	1150 2250 1200 2250
$Comp
L power:PWR_FLAG #FLG0102
U 1 1 5F373297
P 1100 1850
F 0 "#FLG0102" H 1100 1925 50  0001 C CNN
F 1 "PWR_FLAG" H 1100 2023 50  0000 C CNN
F 2 "" H 1100 1850 50  0001 C CNN
F 3 "~" H 1100 1850 50  0001 C CNN
	1    1100 1850
	-1   0    0    1   
$EndComp
Connection ~ 1100 1850
NoConn ~ 4200 2400
NoConn ~ 3800 2400
$Comp
L power:PWR_FLAG #FLG0103
U 1 1 5F375AEA
P 2650 2500
F 0 "#FLG0103" H 2650 2575 50  0001 C CNN
F 1 "PWR_FLAG" H 2650 2673 50  0000 C CNN
F 2 "" H 2650 2500 50  0001 C CNN
F 3 "~" H 2650 2500 50  0001 C CNN
	1    2650 2500
	-1   0    0    1   
$EndComp
$Comp
L power:PWR_FLAG #FLG0104
U 1 1 5F376BDD
P 2450 2800
F 0 "#FLG0104" H 2450 2875 50  0001 C CNN
F 1 "PWR_FLAG" H 2450 2973 50  0000 C CNN
F 2 "" H 2450 2800 50  0001 C CNN
F 3 "~" H 2450 2800 50  0001 C CNN
	1    2450 2800
	-1   0    0    1   
$EndComp
Wire Wire Line
	2150 2800 1800 2800
Connection ~ 2150 2800
Connection ~ 2650 2500
Wire Wire Line
	2650 2500 2600 2500
Connection ~ 2450 2800
Wire Wire Line
	2450 2800 2150 2800
Wire Wire Line
	1100 1700 2550 1700
Wire Wire Line
	900  1550 900  1650
Wire Wire Line
	1000 1600 1550 1600
Wire Wire Line
	1550 1600 1550 1550
Wire Wire Line
	900  1650 1450 1650
Wire Wire Line
	1450 1650 1450 1550
Connection ~ 900  1650
Wire Wire Line
	900  1650 900  2250
Wire Wire Line
	2550 1550 2550 1200
Wire Wire Line
	2550 1200 2750 1200
Wire Wire Line
	1650 1550 2550 1550
Connection ~ 2750 1200
$Comp
L Connector_Generic:Conn_01x04 J2
U 1 1 5F389C34
P 1600 2700
F 0 "J2" H 1518 2367 50  0000 C CNN
F 1 "Conn_01x04" H 1518 2366 50  0001 C CNN
F 2 "Connector_PinSocket_2.54mm:PinSocket_1x04_P2.54mm_Vertical" H 1600 2700 50  0001 C CNN
F 3 "~" H 1600 2700 50  0001 C CNN
	1    1600 2700
	-1   0    0    1   
$EndComp
Wire Wire Line
	2750 2350 2500 2350
Wire Wire Line
	2500 2350 2500 2400
Wire Wire Line
	2500 2400 1800 2400
Wire Wire Line
	1800 2400 1800 2500
Connection ~ 2750 2350
Wire Wire Line
	2750 2350 2750 2500
$EndSCHEMATC
