EESchema Schematic File Version 4
EELAYER 30 0
EELAYER END
$Descr A4 11693 8268
encoding utf-8
Sheet 1 1
Title "PIC16F1454 USB mini-evalulation board"
Date "1 November 2020"
Rev "Rev.3"
Comp "Remy Horton"
Comment1 ""
Comment2 ""
Comment3 ""
Comment4 ""
$EndDescr
$Comp
L MCU_Microchip_PIC16:PIC16F1454-IP U2
U 1 1 5F82F06E
P 4250 3800
F 0 "U2" H 2450 4300 50  0000 C CNN
F 1 "PIC16F1454-IP" H 5900 4300 50  0000 C CNN
F 2 "Package_DIP:DIP-14_W7.62mm" H 4250 3800 50  0001 C CNN
F 3 "http://ww1.microchip.com/downloads/en/DeviceDoc/41639A.pdf" H 4250 3800 50  0001 C CNN
	1    4250 3800
	1    0    0    -1  
$EndComp
$Comp
L power:GND #PWR0101
U 1 1 5F830AC8
P 5500 3100
F 0 "#PWR0101" H 5500 2850 50  0001 C CNN
F 1 "GND" H 5505 2927 50  0000 C CNN
F 2 "" H 5500 3100 50  0001 C CNN
F 3 "" H 5500 3100 50  0001 C CNN
	1    5500 3100
	1    0    0    -1  
$EndComp
$Comp
L power:GND #PWR0102
U 1 1 5F832000
P 4250 4400
F 0 "#PWR0102" H 4250 4150 50  0001 C CNN
F 1 "GND" H 4255 4227 50  0000 C CNN
F 2 "" H 4250 4400 50  0001 C CNN
F 3 "" H 4250 4400 50  0001 C CNN
	1    4250 4400
	1    0    0    -1  
$EndComp
$Comp
L power:VCC #PWR0103
U 1 1 5F8323C9
P 4250 3200
F 0 "#PWR0103" H 4250 3050 50  0001 C CNN
F 1 "VCC" H 4265 3373 50  0000 C CNN
F 2 "" H 4250 3200 50  0001 C CNN
F 3 "" H 4250 3200 50  0001 C CNN
	1    4250 3200
	1    0    0    -1  
$EndComp
Text GLabel 2250 3900 0    50   Input ~ 0
MCLR
$Comp
L Device:C C1
U 1 1 5F833583
P 2100 3500
F 0 "C1" V 1848 3500 50  0000 C CNN
F 1 "0.47uF" V 1939 3500 50  0000 C CNN
F 2 "Capacitor_SMD:C_0805_2012Metric_Pad1.15x1.40mm_HandSolder" H 2138 3350 50  0001 C CNN
F 3 "~" H 2100 3500 50  0001 C CNN
	1    2100 3500
	0    1    1    0   
$EndComp
NoConn ~ 6200 2900
Text GLabel 2250 3700 0    50   Input ~ 0
USB+
Text GLabel 2250 3800 0    50   Input ~ 0
USB-
Text GLabel 6450 3900 2    50   Input ~ 0
TxD
Text GLabel 6450 4000 2    50   Input ~ 0
RxD
Text GLabel 6200 2500 2    50   Input ~ 0
MCLR
$Comp
L Connector:Conn_PIC_ICSP_ICD J5
U 1 1 5F82F72D
P 5700 2700
F 0 "J5" H 5371 2746 50  0000 R CNN
F 1 "Conn_PIC_ICSP_ICD" H 6300 2350 50  0000 R CNN
F 2 "Connector_PinSocket_2.54mm:PinSocket_1x06_P2.54mm_Vertical" H 5750 2850 50  0001 C CNN
F 3 "http://ww1.microchip.com/downloads/en/devicedoc/30277d.pdf" V 5400 2550 50  0001 C CNN
	1    5700 2700
	1    0    0    -1  
$EndComp
Wire Wire Line
	6250 3500 6300 3500
Wire Wire Line
	6300 3500 6300 2700
Wire Wire Line
	6300 2700 6200 2700
Wire Wire Line
	6250 3600 6350 3600
Wire Wire Line
	6350 3600 6350 2800
Wire Wire Line
	6350 2800 6200 2800
Wire Wire Line
	6450 4000 6250 4000
Wire Wire Line
	6250 3900 6450 3900
Wire Wire Line
	4950 2650 4950 2700
Text GLabel 5150 2650 3    50   Input ~ 0
RxD
Text GLabel 5050 2650 3    50   Input ~ 0
TxD
Wire Wire Line
	3100 5950 3200 5950
Connection ~ 3100 5950
$Comp
L power:PWR_FLAG #FLG0101
U 1 1 5F84A405
P 3100 5950
F 0 "#FLG0101" H 3100 6025 50  0001 C CNN
F 1 "PWR_FLAG" H 3100 6123 50  0000 C CNN
F 2 "" H 3100 5950 50  0001 C CNN
F 3 "~" H 3100 5950 50  0001 C CNN
	1    3100 5950
	1    0    0    -1  
$EndComp
$Comp
L power:GND #PWR0109
U 1 1 5F83C4A3
P 4950 2700
F 0 "#PWR0109" H 4950 2450 50  0001 C CNN
F 1 "GND" H 4955 2527 50  0000 C CNN
F 2 "" H 4950 2700 50  0001 C CNN
F 3 "" H 4950 2700 50  0001 C CNN
	1    4950 2700
	1    0    0    -1  
$EndComp
$Comp
L Connector_Generic:Conn_01x03 J2
U 1 1 5F83BE51
P 5050 2450
F 0 "J2" V 5150 2600 50  0000 R CNN
F 1 "Conn_01x03" H 5130 2401 50  0001 L CNN
F 2 "Connector_PinHeader_2.54mm:PinHeader_1x03_P2.54mm_Vertical" H 5050 2450 50  0001 C CNN
F 3 "~" H 5050 2450 50  0001 C CNN
	1    5050 2450
	0    -1   -1   0   
$EndComp
$Comp
L power:GND #PWR0106
U 1 1 5F838745
P 3050 6250
F 0 "#PWR0106" H 3050 6000 50  0001 C CNN
F 1 "GND" H 3055 6077 50  0000 C CNN
F 2 "" H 3050 6250 50  0001 C CNN
F 3 "" H 3050 6250 50  0001 C CNN
	1    3050 6250
	1    0    0    -1  
$EndComp
Wire Wire Line
	3050 6250 3050 6150
Wire Wire Line
	3050 5950 3100 5950
$Comp
L power:VCC #PWR0105
U 1 1 5F837230
P 4050 5800
F 0 "#PWR0105" H 4050 5650 50  0001 C CNN
F 1 "VCC" H 4065 5973 50  0000 C CNN
F 2 "" H 4050 5800 50  0001 C CNN
F 3 "" H 4050 5800 50  0001 C CNN
	1    4050 5800
	1    0    0    -1  
$EndComp
$Comp
L Regulator_Linear:uA7805 U1
U 1 1 5F836B4E
P 3500 5950
F 0 "U1" H 3500 6101 50  0000 C CNN
F 1 "uA7805" H 3500 6101 50  0001 C CNN
F 2 "Package_TO_SOT_SMD:SOT-223-3_TabPin2" H 3525 5800 50  0001 L CIN
F 3 "http://www.ti.com/lit/ds/symlink/ua78.pdf" H 3500 5900 50  0001 C CNN
	1    3500 5950
	1    0    0    -1  
$EndComp
$Comp
L Connector:USB_B_Mini J6
U 1 1 5F85678A
P 1000 5950
F 0 "J6" H 850 6300 50  0000 C CNN
F 1 "USB_B_Mini" H 1057 6326 50  0001 C CNN
F 2 "Connector_USB:USB_Mini-B_Wuerth_65100516121_Horizontal" H 1150 5900 50  0001 C CNN
F 3 "~" H 1150 5900 50  0001 C CNN
	1    1000 5950
	1    0    0    -1  
$EndComp
Text GLabel 2050 5950 2    50   Input ~ 0
USB+
Text GLabel 2050 6050 2    50   Input ~ 0
USB-
NoConn ~ 900  6350
$Comp
L power:GND #PWR0112
U 1 1 5F85AE10
P 1000 6350
F 0 "#PWR0112" H 1000 6100 50  0001 C CNN
F 1 "GND" H 1005 6177 50  0000 C CNN
F 2 "" H 1000 6350 50  0001 C CNN
F 3 "" H 1000 6350 50  0001 C CNN
	1    1000 6350
	1    0    0    -1  
$EndComp
NoConn ~ 1300 6150
$Comp
L power:VBUS #PWR0113
U 1 1 5F85B3A3
P 1300 5750
F 0 "#PWR0113" H 1300 5600 50  0001 C CNN
F 1 "VBUS" H 1315 5923 50  0000 C CNN
F 2 "" H 1300 5750 50  0001 C CNN
F 3 "" H 1300 5750 50  0001 C CNN
	1    1300 5750
	1    0    0    -1  
$EndComp
$Comp
L Jumper:Jumper_3_Bridged12 JP1
U 1 1 5F85DE3D
P 4050 5950
F 0 "JP1" H 4050 6062 50  0000 C CNN
F 1 "Jumper_3_Bridged12" H 4050 6063 50  0001 C CNN
F 2 "Connector_PinHeader_2.54mm:PinHeader_1x03_P2.54mm_Vertical" H 4050 5950 50  0001 C CNN
F 3 "~" H 4050 5950 50  0001 C CNN
	1    4050 5950
	-1   0    0    1   
$EndComp
$Comp
L power:VBUS #PWR0114
U 1 1 5F8664F0
P 4300 5800
F 0 "#PWR0114" H 4300 5650 50  0001 C CNN
F 1 "VBUS" H 4315 5973 50  0000 C CNN
F 2 "" H 4300 5800 50  0001 C CNN
F 3 "" H 4300 5800 50  0001 C CNN
	1    4300 5800
	1    0    0    -1  
$EndComp
Wire Wire Line
	4300 5950 4300 5800
$Comp
L power:VCC #PWR0115
U 1 1 5F8695F3
P 5500 2300
F 0 "#PWR0115" H 5500 2150 50  0001 C CNN
F 1 "VCC" H 5515 2473 50  0000 C CNN
F 2 "" H 5500 2300 50  0001 C CNN
F 3 "" H 5500 2300 50  0001 C CNN
	1    5500 2300
	1    0    0    -1  
$EndComp
Wire Wire Line
	3050 6250 3500 6250
Connection ~ 3050 6250
$Comp
L power:PWR_FLAG #FLG0102
U 1 1 5F86DD50
P 3750 5800
F 0 "#FLG0102" H 3750 5875 50  0001 C CNN
F 1 "PWR_FLAG" H 3750 5973 50  0000 C CNN
F 2 "" H 3750 5800 50  0001 C CNN
F 3 "~" H 3750 5800 50  0001 C CNN
	1    3750 5800
	1    0    0    -1  
$EndComp
$Comp
L Device:C C2
U 1 1 5F86F770
P 3050 2950
F 0 "C2" H 2750 3000 50  0000 L CNN
F 1 "0.1uF" H 2750 2900 50  0000 L CNN
F 2 "Capacitor_SMD:C_0805_2012Metric_Pad1.15x1.40mm_HandSolder" H 3088 2800 50  0001 C CNN
F 3 "~" H 3050 2950 50  0001 C CNN
	1    3050 2950
	1    0    0    -1  
$EndComp
$Comp
L Device:C C3
U 1 1 5F86FCC1
P 3350 2950
F 0 "C3" H 3465 2996 50  0000 L CNN
F 1 "0.01uF" H 3465 2905 50  0000 L CNN
F 2 "Capacitor_SMD:C_0805_2012Metric_Pad1.15x1.40mm_HandSolder" H 3388 2800 50  0001 C CNN
F 3 "~" H 3350 2950 50  0001 C CNN
	1    3350 2950
	1    0    0    -1  
$EndComp
$Comp
L power:VCC #PWR0117
U 1 1 5F870111
P 3200 2800
F 0 "#PWR0117" H 3200 2650 50  0001 C CNN
F 1 "VCC" H 3215 2973 50  0000 C CNN
F 2 "" H 3200 2800 50  0001 C CNN
F 3 "" H 3200 2800 50  0001 C CNN
	1    3200 2800
	1    0    0    -1  
$EndComp
$Comp
L power:GND #PWR0118
U 1 1 5F8714E0
P 3200 3100
F 0 "#PWR0118" H 3200 2850 50  0001 C CNN
F 1 "GND" H 3205 2927 50  0000 C CNN
F 2 "" H 3200 3100 50  0001 C CNN
F 3 "" H 3200 3100 50  0001 C CNN
	1    3200 3100
	1    0    0    -1  
$EndComp
Wire Wire Line
	3350 2800 3200 2800
Wire Wire Line
	3050 3100 3200 3100
Connection ~ 3200 3100
Wire Wire Line
	3200 3100 3350 3100
Wire Wire Line
	3050 2800 3200 2800
Connection ~ 3200 2800
Connection ~ 4250 4400
Text GLabel 3900 2450 0    50   Input ~ 0
LED
Text GLabel 6450 3800 2    50   Input ~ 0
LED
Wire Wire Line
	6250 3800 6450 3800
$Comp
L Device:R R3
U 1 1 5F89E35C
P 3900 2900
F 0 "R3" H 3970 2946 50  0000 L CNN
F 1 "R" H 3970 2855 50  0000 L CNN
F 2 "Resistor_SMD:R_0805_2012Metric_Pad1.15x1.40mm_HandSolder" V 3830 2900 50  0001 C CNN
F 3 "~" H 3900 2900 50  0001 C CNN
	1    3900 2900
	1    0    0    -1  
$EndComp
$Comp
L power:GND #PWR01
U 1 1 5F89EA4F
P 3900 3100
F 0 "#PWR01" H 3900 2850 50  0001 C CNN
F 1 "GND" H 3905 2927 50  0000 C CNN
F 2 "" H 3900 3100 50  0001 C CNN
F 3 "" H 3900 3100 50  0001 C CNN
	1    3900 3100
	1    0    0    -1  
$EndComp
$Comp
L Device:LED D1
U 1 1 5F89F0B5
P 3900 2600
F 0 "D1" V 3939 2482 50  0000 R CNN
F 1 "LED" V 3848 2482 50  0000 R CNN
F 2 "LED_THT:LED_Rectangular_W5.0mm_H2.0mm" H 3900 2600 50  0001 C CNN
F 3 "~" H 3900 2600 50  0001 C CNN
	1    3900 2600
	0    -1   -1   0   
$EndComp
Text GLabel 2050 6150 2    50   Input ~ 0
VSense
Text GLabel 6450 3700 2    50   Input ~ 0
VSense
Wire Wire Line
	6450 3700 6250 3700
$Comp
L Device:R R4
U 1 1 5F946AC0
P 1750 5750
F 0 "R4" H 1820 5796 50  0000 L CNN
F 1 "R" H 1820 5705 50  0000 L CNN
F 2 "Resistor_SMD:R_0805_2012Metric_Pad1.15x1.40mm_HandSolder" V 1680 5750 50  0001 C CNN
F 3 "~" H 1750 5750 50  0001 C CNN
	1    1750 5750
	0    1    1    0   
$EndComp
$Comp
L Device:Crystal Y1
U 1 1 5F9D675E
P 2300 2800
F 0 "Y1" H 2300 3068 50  0000 C CNN
F 1 "Crystal" H 2300 2977 50  0000 C CNN
F 2 "Crystal:Crystal_DS10_D1.0mm_L4.3mm_Vertical" H 2300 2800 50  0001 C CNN
F 3 "~" H 2300 2800 50  0001 C CNN
	1    2300 2800
	1    0    0    -1  
$EndComp
Text GLabel 2250 4000 0    50   Input ~ 0
Crystal1
Text GLabel 2250 4100 0    50   Input ~ 0
Crystal2
Text GLabel 2000 2700 1    50   Input ~ 0
Crystal1
Text GLabel 2600 2700 1    50   Input ~ 0
Crystal2
$Comp
L Device:C C4
U 1 1 5F9D71DB
P 2150 2950
F 0 "C4" H 1950 3000 50  0000 L CNN
F 1 "C" H 1950 2900 50  0000 L CNN
F 2 "Capacitor_SMD:C_0805_2012Metric_Pad1.15x1.40mm_HandSolder" H 2188 2800 50  0001 C CNN
F 3 "~" H 2150 2950 50  0001 C CNN
	1    2150 2950
	1    0    0    -1  
$EndComp
$Comp
L Device:C C5
U 1 1 5F9D7AFC
P 2450 2950
F 0 "C5" H 2565 2996 50  0000 L CNN
F 1 "C" H 2565 2905 50  0000 L CNN
F 2 "Capacitor_SMD:C_0805_2012Metric_Pad1.15x1.40mm_HandSolder" H 2488 2800 50  0001 C CNN
F 3 "~" H 2450 2950 50  0001 C CNN
	1    2450 2950
	1    0    0    -1  
$EndComp
$Comp
L power:GND #PWR03
U 1 1 5F9D84D6
P 2300 3100
F 0 "#PWR03" H 2300 2850 50  0001 C CNN
F 1 "GND" H 2305 2927 50  0000 C CNN
F 2 "" H 2300 3100 50  0001 C CNN
F 3 "" H 2300 3100 50  0001 C CNN
	1    2300 3100
	1    0    0    -1  
$EndComp
Connection ~ 2450 2800
Connection ~ 2150 2800
Wire Wire Line
	2150 3100 2300 3100
Wire Wire Line
	2450 3100 2300 3100
Connection ~ 2300 3100
$Comp
L Device:R R5
U 1 1 5F9F0318
P 1450 5750
F 0 "R5" H 1520 5796 50  0000 L CNN
F 1 "R" H 1520 5705 50  0000 L CNN
F 2 "Resistor_SMD:R_0805_2012Metric_Pad1.15x1.40mm_HandSolder" V 1380 5750 50  0001 C CNN
F 3 "~" H 1450 5750 50  0001 C CNN
	1    1450 5750
	0    1    1    0   
$EndComp
Connection ~ 1300 5750
Wire Wire Line
	1600 5750 1600 6150
Connection ~ 1600 5750
Wire Wire Line
	1000 6350 1900 6350
Wire Wire Line
	1900 6350 1900 5750
Connection ~ 1000 6350
Wire Wire Line
	2050 5950 1300 5950
Wire Wire Line
	1300 6050 2050 6050
Wire Wire Line
	2050 6150 1600 6150
Wire Wire Line
	3750 5800 4050 5800
Connection ~ 4050 5800
Wire Wire Line
	1850 4400 1850 3500
Wire Wire Line
	1850 3500 1950 3500
Wire Wire Line
	1850 4400 4250 4400
Wire Wire Line
	3900 3050 3900 3100
Wire Wire Line
	2600 2800 2600 2700
Wire Wire Line
	2450 2800 2600 2800
Wire Wire Line
	2000 2800 2000 2700
Wire Wire Line
	2000 2800 2150 2800
$Comp
L Connector:Barrel_Jack J1
U 1 1 5FA40C44
P 2750 6050
F 0 "J1" H 2807 6375 50  0000 C CNN
F 1 "Barrel_Jack" H 2807 6284 50  0000 C CNN
F 2 "Connector_BarrelJack:BarrelJack_CUI_PJ-102AH_Horizontal" H 2800 6010 50  0001 C CNN
F 3 "~" H 2800 6010 50  0001 C CNN
	1    2750 6050
	1    0    0    -1  
$EndComp
$EndSCHEMATC
