EESchema Schematic File Version 4
EELAYER 30 0
EELAYER END
$Descr A4 11693 8268
encoding utf-8
Sheet 1 1
Title "Power Relay"
Date "8 August 2020"
Rev "Rev.2"
Comp "Remy Horton"
Comment1 ""
Comment2 ""
Comment3 ""
Comment4 ""
$EndDescr
Wire Wire Line
	3300 2100 3300 2200
Wire Wire Line
	3300 2400 3300 2500
Wire Wire Line
	3300 2300 3250 2300
Wire Wire Line
	3250 2300 3250 2750
$Comp
L Connector:Barrel_Jack_MountingPin J2
U 1 1 5F1D9BCE
P 2600 1600
F 0 "J2" H 2657 1825 50  0000 C CNN
F 1 "Barrel_Jack_MountingPin" H 2657 1826 50  0001 C CNN
F 2 "Connector_BarrelJack:BarrelJack_Horizontal" H 2650 1560 50  0001 C CNN
F 3 "~" H 2650 1560 50  0001 C CNN
	1    2600 1600
	1    0    0    -1  
$EndComp
$Comp
L Regulator_Linear:LM7805_TO220 U1
U 1 1 5F1DA067
P 3400 1550
F 0 "U1" H 3400 1792 50  0000 C CNN
F 1 "LM7805_TO220" H 3400 1701 50  0000 C CNN
F 2 "Package_TO_SOT_THT:TO-220-3_Vertical" H 3400 1775 50  0001 C CIN
F 3 "http://www.fairchildsemi.com/ds/LM/LM7805.pdf" H 3400 1500 50  0001 C CNN
	1    3400 1550
	1    0    0    -1  
$EndComp
Wire Wire Line
	2900 1500 3000 1500
Wire Wire Line
	3000 1500 3000 1550
Wire Wire Line
	3000 1550 3100 1550
Wire Wire Line
	2900 1700 2900 1850
Wire Wire Line
	2900 1850 3050 1850
NoConn ~ 2600 1900
$Comp
L Connector_Generic:Conn_01x06 J1
U 1 1 5F1E2C46
P 3050 2350
F 0 "J1" H 3130 2296 50  0000 L CNN
F 1 "Conn_01x06" H 3130 2251 50  0001 L CNN
F 2 "Connector_PinSocket_2.54mm:PinSocket_1x06_P2.54mm_Vertical" H 3050 2350 50  0001 C CNN
F 3 "~" H 3050 2350 50  0001 C CNN
	1    3050 2350
	1    0    0    -1  
$EndComp
$Comp
L power:+5V #PWR01
U 1 1 5F1E40F9
P 4750 1550
F 0 "#PWR01" H 4750 1400 50  0001 C CNN
F 1 "+5V" H 4765 1723 50  0000 C CNN
F 2 "" H 4750 1550 50  0001 C CNN
F 3 "" H 4750 1550 50  0001 C CNN
	1    4750 1550
	1    0    0    -1  
$EndComp
$Comp
L power:+5V #PWR0101
U 1 1 5F1F2D2F
P 3800 1550
F 0 "#PWR0101" H 3800 1400 50  0001 C CNN
F 1 "+5V" H 3815 1723 50  0000 C CNN
F 2 "" H 3800 1550 50  0001 C CNN
F 3 "" H 3800 1550 50  0001 C CNN
	1    3800 1550
	1    0    0    -1  
$EndComp
Wire Wire Line
	3800 1550 3700 1550
Text Label 2850 2150 2    50   ~ 0
MCLR
$Comp
L power:+5V #PWR0102
U 1 1 5F1F4255
P 2550 2250
F 0 "#PWR0102" H 2550 2100 50  0001 C CNN
F 1 "+5V" H 2565 2423 50  0000 C CNN
F 2 "" H 2550 2250 50  0001 C CNN
F 3 "" H 2550 2250 50  0001 C CNN
	1    2550 2250
	1    0    0    -1  
$EndComp
$Comp
L power:GND #PWR0103
U 1 1 5F1F4A57
P 2550 2350
F 0 "#PWR0103" H 2550 2100 50  0001 C CNN
F 1 "GND" H 2555 2177 50  0000 C CNN
F 2 "" H 2550 2350 50  0001 C CNN
F 3 "" H 2550 2350 50  0001 C CNN
	1    2550 2350
	1    0    0    -1  
$EndComp
Text Label 2850 2450 2    50   ~ 0
PGD
Text Label 2850 2550 2    50   ~ 0
PGC
NoConn ~ 2850 2650
Wire Wire Line
	2850 2250 2550 2250
Wire Wire Line
	2850 2350 2550 2350
$Comp
L power:GND #PWR0105
U 1 1 5F1F67D7
P 3150 1850
F 0 "#PWR0105" H 3150 1600 50  0001 C CNN
F 1 "GND" H 3155 1677 50  0000 C CNN
F 2 "" H 3150 1850 50  0001 C CNN
F 3 "" H 3150 1850 50  0001 C CNN
	1    3150 1850
	1    0    0    -1  
$EndComp
Connection ~ 3150 1850
Wire Wire Line
	3150 1850 3400 1850
$Comp
L power:PWR_FLAG #FLG0101
U 1 1 5F1F6C7C
P 3000 1500
F 0 "#FLG0101" H 3000 1575 50  0001 C CNN
F 1 "PWR_FLAG" H 3000 1673 50  0000 C CNN
F 2 "" H 3000 1500 50  0001 C CNN
F 3 "~" H 3000 1500 50  0001 C CNN
	1    3000 1500
	1    0    0    -1  
$EndComp
Connection ~ 3000 1500
$Comp
L power:PWR_FLAG #FLG0102
U 1 1 5F1F6F7E
P 3050 1800
F 0 "#FLG0102" H 3050 1875 50  0001 C CNN
F 1 "PWR_FLAG" H 3050 1973 50  0000 C CNN
F 2 "" H 3050 1800 50  0001 C CNN
F 3 "~" H 3050 1800 50  0001 C CNN
	1    3050 1800
	1    0    0    -1  
$EndComp
Wire Wire Line
	3050 1800 3050 1850
Connection ~ 3050 1850
Wire Wire Line
	3050 1850 3150 1850
Connection ~ 4750 1550
NoConn ~ 4350 2000
NoConn ~ 4350 2400
$Comp
L power:GND #PWR0104
U 1 1 5F1F5D26
P 3750 1700
F 0 "#PWR0104" H 3750 1450 50  0001 C CNN
F 1 "GND" H 3755 1527 50  0000 C CNN
F 2 "" H 3750 1700 50  0001 C CNN
F 3 "" H 3750 1700 50  0001 C CNN
	1    3750 1700
	1    0    0    -1  
$EndComp
$Comp
L power:+5V #PWR02
U 1 1 5F1F2298
P 5650 1700
F 0 "#PWR02" H 5650 1550 50  0001 C CNN
F 1 "+5V" H 5665 1873 50  0000 C CNN
F 2 "" H 5650 1700 50  0001 C CNN
F 3 "" H 5650 1700 50  0001 C CNN
	1    5650 1700
	1    0    0    -1  
$EndComp
$Comp
L power:GND #PWR03
U 1 1 5F1F1ED2
P 6200 2650
F 0 "#PWR03" H 6200 2400 50  0001 C CNN
F 1 "GND" H 6205 2477 50  0000 C CNN
F 2 "" H 6200 2650 50  0001 C CNN
F 3 "" H 6200 2650 50  0001 C CNN
	1    6200 2650
	1    0    0    -1  
$EndComp
Wire Wire Line
	4850 2150 4850 2400
Connection ~ 4750 1850
Wire Wire Line
	4850 1850 4750 1850
Wire Wire Line
	4850 2400 5050 2400
Wire Wire Line
	4550 1850 4750 1850
Wire Wire Line
	4350 1700 4350 1550
Text Label 6250 2200 1    50   ~ 0
MCLR
Text Label 5050 2300 2    50   ~ 0
PGC
Text Label 5050 2200 2    50   ~ 0
PGD
$Comp
L Device:R R2
U 1 1 5F1E6A17
P 4850 2000
F 0 "R2" H 4780 1954 50  0000 R CNN
F 1 "2k" H 4780 2045 50  0000 R CNN
F 2 "Resistor_THT:R_Axial_DIN0411_L9.9mm_D3.6mm_P15.24mm_Horizontal" V 4780 2000 50  0001 C CNN
F 3 "~" H 4850 2000 50  0001 C CNN
	1    4850 2000
	-1   0    0    1   
$EndComp
$Comp
L Device:R R1
U 1 1 5F1E5B39
P 4750 1700
F 0 "R1" H 4680 1654 50  0000 R CNN
F 1 "10k" H 4680 1745 50  0000 R CNN
F 2 "Resistor_THT:R_Axial_DIN0411_L9.9mm_D3.6mm_P15.24mm_Horizontal" V 4680 1700 50  0001 C CNN
F 3 "~" H 4750 1700 50  0001 C CNN
	1    4750 1700
	-1   0    0    1   
$EndComp
$Comp
L Transistor_BJT:BC556 Q1
U 1 1 5F1E33AC
P 4550 1650
F 0 "Q1" V 4878 1650 50  0000 C CNN
F 1 "BC556" V 4787 1650 50  0000 C CNN
F 2 "Package_TO_SOT_THT:TO-92_Inline" H 4750 1575 50  0001 L CIN
F 3 "http://www.fairchildsemi.com/ds/BC/BC557.pdf" H 4550 1650 50  0001 L CNN
	1    4550 1650
	0    -1   -1   0   
$EndComp
$Comp
L MCU_Microchip_PIC12:PIC12F1822-IP U2
U 1 1 5F1D8B66
P 5650 2300
F 0 "U2" H 5300 2750 50  0000 C CNN
F 1 "PIC12F1822-IP" H 5950 2750 50  0000 C CNN
F 2 "Package_DIP:DIP-8_W7.62mm" H 6250 2950 50  0001 C CNN
F 3 "http://ww1.microchip.com/downloads/en/DeviceDoc/41413B.pdf" H 5650 2300 50  0001 C CNN
	1    5650 2300
	1    0    0    -1  
$EndComp
Wire Wire Line
	4450 2300 4550 2300
Wire Wire Line
	4450 2750 4450 2300
Wire Wire Line
	3250 2750 4450 2750
Wire Wire Line
	4550 2600 4550 2400
Wire Wire Line
	4350 2600 4550 2600
Wire Wire Line
	4350 2200 4550 2200
Wire Wire Line
	3300 2500 3750 2500
Wire Wire Line
	3750 2100 3300 2100
$Comp
L Connector_Generic:Conn_01x03 J3
U 1 1 5F1D2D91
P 3500 2300
F 0 "J3" H 3580 2296 50  0000 L CNN
F 1 "Conn_01x03" H 3580 2251 50  0001 L CNN
F 2 "TerminalBlock_Phoenix:TerminalBlock_Phoenix_MKDS-1,5-3-5.08_1x03_P5.08mm_Horizontal" H 3500 2300 50  0001 C CNN
F 3 "~" H 3500 2300 50  0001 C CNN
	1    3500 2300
	1    0    0    -1  
$EndComp
$Comp
L Connector_Generic:Conn_01x03 J4
U 1 1 5F1D2A19
P 4750 2300
F 0 "J4" H 4700 2500 50  0000 L CNN
F 1 "Conn_01x03" H 4830 2251 50  0001 L CNN
F 2 "TerminalBlock_Phoenix:TerminalBlock_Phoenix_MKDS-1,5-3-5.08_1x03_P5.08mm_Horizontal" H 4750 2300 50  0001 C CNN
F 3 "~" H 4750 2300 50  0001 C CNN
	1    4750 2300
	1    0    0    -1  
$EndComp
$Comp
L Relay:EC2-5NU K1
U 1 1 5F1D191F
P 4050 2100
F 0 "K1" V 3283 2100 50  0000 C CNN
F 1 "EC2-5NU" V 3374 2100 50  0000 C CNN
F 2 "Relay_THT:Relay_DPDT_Kemet_EC2" H 4050 2100 50  0001 C CNN
F 3 "https://content.kemet.com/datasheets/KEM_R7002_EC2_EE2.pdf" H 4050 2100 50  0001 C CNN
	1    4050 2100
	0    1    1    0   
$EndComp
$Comp
L Connector_Generic:Conn_01x03 J5
U 1 1 5F1FD333
P 6450 2000
F 0 "J5" V 6414 1812 50  0000 R CNN
F 1 "Conn_01x03" V 6323 1812 50  0000 R CNN
F 2 "Connector_PinHeader_2.54mm:PinHeader_1x03_P2.54mm_Vertical" H 6450 2000 50  0001 C CNN
F 3 "~" H 6450 2000 50  0001 C CNN
	1    6450 2000
	0    -1   -1   0   
$EndComp
Wire Wire Line
	6250 2300 6450 2300
Wire Wire Line
	6450 2300 6450 2200
Wire Wire Line
	6250 2400 6550 2400
Wire Wire Line
	6550 2400 6550 2200
Wire Wire Line
	5650 2900 6350 2900
Wire Wire Line
	6350 2200 6350 2600
Wire Wire Line
	6200 2650 6200 2600
Wire Wire Line
	6200 2600 6350 2600
Connection ~ 6350 2600
Wire Wire Line
	6350 2600 6350 2900
$EndSCHEMATC
